<?xml version="1.0" encoding="UTF-8"?>
<!DOCTYPE svg PUBLIC "-//W3C//DTD SVG 1.1//EN" "http://www.w3.org/Graphics/SVG/1.1/DTD/svg11.dtd">
<svg version="1.2" width="728.05mm" height="417.6mm" viewBox="0 0 72805 41760" preserveAspectRatio="xMidYMid" fill-rule="evenodd" stroke-width="28.222" stroke-linejoin="round" xmlns="http://www.w3.org/2000/svg" xmlns:ooo="http://xml.openoffice.org/svg/export" xmlns:xlink="http://www.w3.org/1999/xlink" xmlns:presentation="http://sun.com/xmlns/staroffice/presentation" xmlns:smil="http://www.w3.org/2001/SMIL20/" xmlns:anim="urn:oasis:names:tc:opendocument:xmlns:animation:1.0" xml:space="preserve">
 <defs class="ClipPathGroup">
  <clipPath id="presentation_clip_path" clipPathUnits="userSpaceOnUse">
   <rect x="0" y="0" width="72805" height="41760"/>
  </clipPath>
  <clipPath id="presentation_clip_path_shrink" clipPathUnits="userSpaceOnUse">
   <rect x="72" y="41" width="72660" height="41677"/>
  </clipPath>
 </defs>
 <defs class="TextShapeIndex">
  <g ooo:slide="id1" ooo:id-list="id3"/>
 </defs>
 <defs class="EmbeddedBulletChars">
  <g id="bullet-char-template-57356" transform="scale(0.00048828125,-0.00048828125)">
   <path d="M 580,1141 L 1163,571 580,0 -4,571 580,1141 Z"/>
  </g>
  <g id="bullet-char-template-57354" transform="scale(0.00048828125,-0.00048828125)">
   <path d="M 8,1128 L 1137,1128 1137,0 8,0 8,1128 Z"/>
  </g>
  <g id="bullet-char-template-10146" transform="scale(0.00048828125,-0.00048828125)">
   <path d="M 174,0 L 602,739 174,1481 1456,739 174,0 Z M 1358,739 L 309,1346 659,739 1358,739 Z"/>
  </g>
  <g id="bullet-char-template-10132" transform="scale(0.00048828125,-0.00048828125)">
   <path d="M 2015,739 L 1276,0 717,0 1260,543 174,543 174,936 1260,936 717,1481 1274,1481 2015,739 Z"/>
  </g>
  <g id="bullet-char-template-10007" transform="scale(0.00048828125,-0.00048828125)">
   <path d="M 0,-2 C -7,14 -16,27 -25,37 L 356,567 C 262,823 215,952 215,954 215,979 228,992 255,992 264,992 276,990 289,987 310,991 331,999 354,1012 L 381,999 492,748 772,1049 836,1024 860,1049 C 881,1039 901,1025 922,1006 886,937 835,863 770,784 769,783 710,716 594,584 L 774,223 C 774,196 753,168 711,139 L 727,119 C 717,90 699,76 672,76 641,76 570,178 457,381 L 164,-76 C 142,-110 111,-127 72,-127 30,-127 9,-110 8,-76 1,-67 -2,-52 -2,-32 -2,-23 -1,-13 0,-2 Z"/>
  </g>
  <g id="bullet-char-template-10004" transform="scale(0.00048828125,-0.00048828125)">
   <path d="M 285,-33 C 182,-33 111,30 74,156 52,228 41,333 41,471 41,549 55,616 82,672 116,743 169,778 240,778 293,778 328,747 346,684 L 369,508 C 377,444 397,411 428,410 L 1163,1116 C 1174,1127 1196,1133 1229,1133 1271,1133 1292,1118 1292,1087 L 1292,965 C 1292,929 1282,901 1262,881 L 442,47 C 390,-6 338,-33 285,-33 Z"/>
  </g>
  <g id="bullet-char-template-9679" transform="scale(0.00048828125,-0.00048828125)">
   <path d="M 813,0 C 632,0 489,54 383,161 276,268 223,411 223,592 223,773 276,916 383,1023 489,1130 632,1184 813,1184 992,1184 1136,1130 1245,1023 1353,916 1407,772 1407,592 1407,412 1353,268 1245,161 1136,54 992,0 813,0 Z"/>
  </g>
  <g id="bullet-char-template-8226" transform="scale(0.00048828125,-0.00048828125)">
   <path d="M 346,457 C 273,457 209,483 155,535 101,586 74,649 74,723 74,796 101,859 155,911 209,963 273,989 346,989 419,989 480,963 531,910 582,859 608,796 608,723 608,648 583,586 532,535 482,483 420,457 346,457 Z"/>
  </g>
  <g id="bullet-char-template-8211" transform="scale(0.00048828125,-0.00048828125)">
   <path d="M -4,459 L 1135,459 1135,606 -4,606 -4,459 Z"/>
  </g>
  <g id="bullet-char-template-61548" transform="scale(0.00048828125,-0.00048828125)">
   <path d="M 173,740 C 173,903 231,1043 346,1159 462,1274 601,1332 765,1332 928,1332 1067,1274 1183,1159 1299,1043 1357,903 1357,740 1357,577 1299,437 1183,322 1067,206 928,148 765,148 601,148 462,206 346,322 231,437 173,577 173,740 Z"/>
  </g>
 </defs>
 <g>
  <g id="id2" class="Master_Slide">
   <g id="bg-id2" class="Background"/>
   <g id="bo-id2" class="BackgroundObjects"/>
  </g>
 </g>
 <g class="SlideGroup">
  <g>
   <g id="container-id1">
    <g id="id1" class="Slide" clip-path="url(#presentation_clip_path)">
     <g class="Page">
      <g class="Graphic">
       <g id="id3">
        <rect class="BoundingBox" stroke="none" fill="none" x="0" y="0" width="72805" height="41760"/>
        <path fill="rgb(255,255,255)" stroke="none" d="M 0,0 L 72804,0 72804,41759 0,41759 0,0 Z"/>
        <path fill="rgb(0,0,0)" stroke="none" d="M 578,45 C 578,108 1008,1304 1202,1777 1932,3566 2684,4726 4222,6448 4409,6659 4564,6853 4564,6875 4564,6917 4218,7386 4187,7386 4176,7386 3971,7199 3728,6970 2962,6257 2264,5439 2264,5259 2264,5217 2271,5065 2282,4924 2292,4786 2285,4659 2267,4649 2250,4638 2236,4599 2236,4560 2236,4525 2211,4493 2183,4493 2155,4493 2130,4462 2130,4423 2130,4384 2116,4352 2102,4352 2052,4352 1985,4183 2024,4158 2045,4144 2059,4102 2059,4063 2059,4021 2049,4000 2035,4014 2021,4024 1989,4000 1964,3957 1939,3908 1922,3897 1918,3929 1918,3978 1671,3742 1671,3689 1671,3640 1505,3470 1456,3470 1417,3467 1421,3460 1463,3425 1495,3400 1513,3361 1502,3336 1495,3308 1474,3301 1449,3322 1421,3343 1375,3326 1318,3266 1269,3220 1255,3192 1283,3206 1322,3227 1326,3223 1297,3192 1276,3167 1223,3146 1181,3142 1110,3139 1093,3111 1103,3026 1107,3001 1086,2976 1057,2966 1029,2955 990,2888 966,2821 945,2751 902,2694 874,2694 846,2694 825,2670 825,2641 825,2610 803,2599 765,2613 726,2627 715,2624 733,2595 747,2571 736,2553 708,2553 680,2553 645,2528 634,2497 620,2461 627,2451 659,2465 680,2479 673,2465 641,2437 606,2409 585,2380 595,2373 602,2363 578,2338 542,2313 500,2289 472,2285 472,2306 472,2405 327,2236 317,2123 310,2080 260,2049 260,2088 260,2112 243,2130 221,2130 204,2130 197,2116 207,2095 246,2035 158,1918 91,1943 41,1961 38,1953 77,1915 133,1855 130,1823 66,1798 20,1781 13,4014 13,21761 L 13,41746 15387,41742 C 29258,41739 30743,41735 30627,41686 30553,41654 30493,41615 30493,41601 30493,41506 30846,41552 31177,41689 31297,41739 31622,41746 34250,41746 36395,41746 37217,41735 37302,41703 37393,41672 37425,41672 37436,41703 37446,41735 41697,41746 55120,41746 L 72791,41746 72791,20880 72791,13 50693,13 28595,13 28606,172 C 28613,260 28602,341 28581,352 28556,366 28560,384 28584,398 28623,422 28666,676 28666,860 28666,909 28676,962 28690,983 28704,1001 28715,1068 28715,1132 28711,1191 28726,1234 28743,1220 28761,1209 28768,1227 28754,1259 28743,1290 28750,1318 28768,1326 28789,1333 28807,1393 28807,1460 28810,1527 28842,1629 28877,1692 28937,1798 28948,1925 28895,1975 28881,1989 28860,1971 28849,1939 28831,1890 28817,1886 28793,1925 28768,1961 28754,1961 28740,1925 28733,1904 28708,1883 28687,1883 28669,1883 28595,1823 28521,1749 28450,1678 28352,1597 28306,1569 28161,1484 28024,1417 27978,1410 27953,1407 27921,1396 27900,1382 27854,1357 27734,1368 27678,1403 27653,1417 27621,1424 27611,1414 27586,1389 27382,1463 27329,1516 27304,1541 27283,1576 27283,1597 27283,1618 27262,1636 27233,1636 27205,1636 27170,1671 27156,1714 27131,1791 27036,1911 27036,1862 27036,1851 27015,1858 26990,1879 26962,1901 26934,1908 26923,1901 26912,1890 26870,1872 26828,1865 26764,1855 26754,1865 26771,1918 26782,1953 26775,1992 26757,2006 26732,2020 26732,2056 26754,2112 26771,2162 26775,2200 26757,2200 26739,2200 26732,2232 26743,2271 26754,2310 26775,2342 26792,2342 26810,2342 26824,2373 26824,2412 26824,2451 26842,2483 26863,2483 26884,2483 26895,2504 26884,2525 26877,2550 26888,2595 26912,2624 26937,2652 27011,2775 27075,2899 27138,3019 27219,3149 27255,3188 27290,3227 27318,3273 27318,3290 27318,3312 27410,3442 27519,3583 27632,3721 27720,3848 27713,3865 27710,3880 27724,3894 27741,3894 27763,3894 27815,3936 27861,3985 27911,4045 27974,4077 28038,4077 28108,4077 28144,4098 28158,4148 28172,4204 28196,4215 28274,4197 28348,4183 28376,4190 28376,4229 28376,4254 28394,4289 28419,4303 28447,4321 28450,4310 28436,4271 28426,4236 28429,4211 28447,4211 28468,4211 28482,4229 28482,4250 28482,4278 28500,4278 28535,4246 28609,4186 28602,4229 28528,4303 28472,4359 28472,4363 28525,4345 28584,4321 28676,4395 28634,4433 28623,4448 28637,4458 28673,4458 28704,4458 28722,4472 28711,4493 28690,4525 28747,4543 28863,4539 28884,4536 28906,4553 28906,4571 28906,4589 28941,4596 28987,4585 29029,4575 29043,4575 29022,4585 28987,4599 28990,4617 29029,4656 29057,4687 29100,4698 29121,4684 29149,4670 29152,4673 29138,4698 29124,4723 29131,4740 29149,4740 29170,4740 29188,4765 29188,4797 29188,4850 29195,4850 29269,4804 29311,4776 29403,4751 29470,4751 29537,4751 29643,4726 29706,4694 29816,4634 29819,4634 29936,4744 29999,4804 30140,4917 30246,4998 30606,5262 30955,5559 31008,5640 31057,5717 31043,5852 30987,5816 30973,5806 30952,5823 30938,5852 30927,5880 30934,5912 30955,5922 30973,5936 30980,5961 30969,5979 30955,5996 30962,6010 30983,6010 31001,6010 31012,6053 31005,6106 30997,6162 30990,6218 30990,6240 30987,6257 30973,6254 30955,6225 30906,6151 30800,6204 30839,6282 30856,6317 30867,6363 30856,6381 30849,6402 30874,6451 30913,6494 30952,6532 30973,6578 30962,6589 30948,6599 30962,6610 30990,6614 31019,6617 31001,6628 30952,6642 30902,6656 30842,6656 30821,6635 30793,6617 30796,6645 30832,6712 30863,6772 30895,6822 30902,6822 30913,6822 30909,6800 30899,6776 30885,6755 30902,6765 30930,6800 30962,6839 30987,6889 30987,6913 30987,6938 31005,7002 31029,7058 31114,7263 31103,7347 30997,7393 30945,7418 30892,7439 30885,7443 30878,7450 30906,7499 30948,7555 31026,7668 31149,7721 31177,7654 31184,7633 31195,7640 31195,7668 31199,7700 31230,7746 31266,7774 31304,7799 31329,7834 31319,7852 31308,7866 31326,7880 31357,7880 31400,7880 31407,7894 31375,7947 31347,8003 31354,8028 31417,8074 31474,8116 31484,8141 31456,8152 31431,8162 31410,8190 31410,8215 31410,8240 31431,8272 31456,8279 31477,8289 31460,8300 31410,8300 31347,8303 31336,8314 31371,8335 31407,8360 31410,8381 31378,8441 31350,8490 31350,8515 31375,8515 31393,8515 31410,8504 31410,8487 31410,8473 31453,8444 31502,8420 31555,8395 31587,8384 31573,8399 31562,8409 31608,8459 31671,8501 31738,8547 31802,8617 31816,8656 31844,8741 31742,8970 31587,9182 31477,9333 31474,9333 31410,9263 31110,8942 29999,8522 28994,8353 28556,8275 27413,8268 27071,8335 25935,8557 24877,8889 24284,9206 24118,9298 23836,9471 23656,9598 23459,9736 23314,9813 23286,9799 22975,9612 22792,9199 22799,8695 22806,8063 22951,7619 23289,7171 23677,6659 23787,6402 23720,6151 23628,5816 23335,5661 22908,5725 22771,5746 22559,5806 22432,5859 L 22206,5950 22009,5876 C 21783,5788 21681,5781 21487,5837 21335,5880 21039,6155 20901,6381 20407,7206 20167,7926 20047,8970 L 20005,9333 19913,9217 C 19864,9153 19822,9090 19822,9079 19822,9026 19695,8935 19656,8959 19624,8981 19624,8970 19659,8928 19702,8875 19698,8868 19649,8868 19617,8868 19592,8850 19592,8832 19592,8811 19561,8762 19522,8716 19370,8547 19345,8515 19370,8515 19384,8515 19359,8490 19317,8459 19275,8430 19239,8381 19239,8353 19239,8324 19225,8303 19204,8303 19187,8303 19169,8272 19169,8233 19169,8194 19137,8134 19098,8102 19060,8067 19028,8021 19028,8000 19028,7975 18950,7880 18858,7785 18763,7693 18679,7587 18664,7552 18650,7517 18626,7495 18612,7506 18597,7517 18555,7467 18516,7400 18481,7333 18435,7280 18418,7280 18396,7280 18393,7270 18403,7259 18418,7245 18386,7185 18336,7129 18287,7069 18231,6980 18213,6935 18185,6857 18178,6857 18121,6910 18086,6945 18079,6977 18100,6991 18118,7005 18132,7051 18128,7097 18125,7143 18146,7192 18178,7210 18223,7238 18223,7241 18185,7245 18142,7245 18146,7256 18192,7287 18248,7330 18245,7333 18164,7333 18100,7333 18079,7319 18093,7280 18111,7238 18107,7238 18072,7270 18037,7305 18040,7326 18089,7383 18125,7421 18142,7481 18132,7541 18121,7605 18132,7633 18167,7633 18195,7633 18216,7665 18216,7700 18216,7739 18238,7792 18266,7820 18294,7848 18333,7933 18354,8007 18375,8081 18425,8197 18463,8261 18502,8324 18534,8395 18534,8416 18534,8441 18576,8504 18633,8561 18686,8621 18703,8656 18675,8642 18647,8628 18650,8638 18689,8670 18731,8702 18749,8751 18735,8797 18724,8836 18731,8861 18749,8847 18777,8829 18940,9062 18940,9125 18940,9139 18961,9164 18985,9182 19014,9199 19031,9217 19024,9224 19007,9256 19070,9397 19105,9397 19123,9397 19134,9418 19123,9443 19112,9467 19151,9566 19208,9665 19264,9760 19317,9863 19331,9891 19342,9919 19366,9968 19384,9997 19402,10025 19458,10138 19515,10244 19568,10349 19620,10445 19631,10455 19645,10466 19666,10512 19684,10561 19723,10677 19723,10688 19730,10780 19730,10822 19744,10843 19758,10833 19790,10797 19878,10882 19850,10924 19839,10942 19850,10977 19878,10998 19906,11020 19945,11076 19970,11125 19991,11175 20044,11291 20090,11390 20132,11485 20178,11573 20188,11584 20199,11595 20231,11644 20259,11697 20287,11750 20323,11785 20340,11775 20354,11764 20368,11782 20368,11810 20368,11842 20386,11866 20404,11866 20425,11866 20467,11923 20499,11990 20531,12057 20569,12103 20587,12092 20601,12081 20615,12120 20615,12180 20615,12237 20605,12290 20591,12300 20573,12307 20580,12311 20601,12304 20647,12293 20795,12452 20781,12494 20778,12508 20827,12572 20890,12635 20968,12709 21003,12776 20996,12829 20989,12886 21003,12907 21049,12903 21084,12900 21109,12921 21109,12963 21109,12999 21134,13041 21162,13059 21194,13073 21222,13126 21229,13175 21233,13224 21247,13281 21261,13302 21271,13320 21268,13471 21250,13634 21190,14163 21208,15352 21286,15958 21374,16639 21374,16678 21296,16650 21264,16636 21229,16643 21219,16660 21176,16724 21000,16653 20866,16519 20665,16318 20531,16329 20534,16544 20534,16565 20506,16576 20467,16565 20411,16551 20407,16562 20439,16643 20485,16770 20485,16787 20421,16734 20379,16699 20375,16713 20390,16840 20414,17045 20464,17158 20527,17158 20559,17158 20577,17172 20566,17186 20555,17204 20573,17285 20601,17369 20658,17528 20629,17687 20545,17687 20527,17687 20509,17715 20509,17754 20509,17789 20485,17839 20460,17863 20432,17884 20404,17969 20397,18050 20390,18146 20372,18195 20344,18188 20284,18177 20287,18244 20347,18308 20379,18336 20393,18407 20386,18481 20379,18548 20390,18597 20404,18587 20453,18555 20499,18682 20492,18823 20488,18897 20499,18957 20513,18957 20555,18957 21003,19423 21053,19521 21081,19571 21120,19694 21148,19793 21173,19895 21204,19980 21222,19980 21236,19980 21250,20005 21250,20033 21250,20061 21264,20086 21279,20086 21314,20086 21328,20322 21300,20410 21289,20446 21261,20474 21233,20474 21208,20474 21176,20523 21162,20583 21144,20654 21120,20685 21088,20671 21053,20657 21046,20678 21063,20756 21074,20816 21063,20883 21042,20911 21017,20939 21003,20989 21010,21024 21017,21056 20996,21088 20965,21091 20919,21098 20908,21081 20919,21003 20936,20911 20929,20904 20838,20915 20785,20922 20700,20932 20651,20939 20601,20947 20552,20964 20538,20985 20524,21003 20492,21021 20467,21024 20442,21024 20393,21031 20358,21031 20323,21035 20301,21052 20312,21066 20323,21084 20270,21098 20199,21105 20128,21109 20030,21119 19980,21126 19931,21130 19878,21126 19864,21119 19804,21084 19416,21074 19416,21105 19416,21123 19359,21130 19292,21123 19222,21119 19176,21126 19187,21144 19208,21179 18876,21102 18710,21031 18456,20922 17807,20322 17775,20167 17765,20110 17723,19948 17680,19804 17641,19659 17603,19490 17592,19433 17581,19373 17560,19303 17546,19274 17514,19214 17370,18706 17352,18590 17313,18350 17324,18177 17380,18188 17402,18195 17419,18170 17412,18135 17405,18096 17426,18075 17465,18071 17504,18071 17511,18061 17486,18050 17416,18026 17430,17906 17504,17913 17543,17916 17560,17895 17557,17846 17553,17782 17557,17786 17613,17860 17656,17916 17687,17930 17701,17902 17715,17881 17708,17863 17687,17863 17663,17863 17652,17839 17666,17810 17677,17782 17663,17740 17638,17715 17610,17687 17603,17638 17617,17599 17634,17553 17620,17514 17585,17486 17532,17447 17532,17444 17585,17440 17634,17440 17641,17412 17624,17271 17613,17179 17592,17098 17578,17094 17560,17087 17546,17059 17546,17031 17546,17003 17525,16971 17497,16960 17469,16950 17437,16904 17426,16858 17416,16812 17359,16731 17299,16678 17243,16622 17186,16530 17172,16470 17144,16336 17073,16234 17035,16269 17021,16283 17017,16265 17028,16230 17042,16198 17038,16170 17024,16170 17010,16170 16968,16099 16932,16015 16894,15927 16848,15863 16834,15874 16819,15884 16805,15867 16805,15835 16805,15803 16784,15754 16763,15729 16647,15602 16625,15563 16608,15464 16594,15408 16573,15359 16558,15359 16541,15359 16537,15327 16548,15288 16569,15203 16467,15073 16400,15098 16375,15108 16347,15080 16333,15027 16322,14978 16290,14946 16266,14953 16195,14981 16132,14914 16008,14671 15913,14487 15870,14420 15807,14357 15775,14322 15754,14283 15765,14265 15775,14247 15768,14226 15747,14212 15726,14198 15722,14170 15736,14149 15751,14124 15729,14131 15694,14159 15634,14205 15631,14205 15645,14159 15662,14110 15557,13972 15525,14004 15518,14015 15489,13972 15465,13912 15440,13856 15408,13803 15391,13803 15373,13799 15345,13792 15324,13789 15306,13785 15274,13778 15253,13775 15235,13775 15221,13761 15221,13743 15235,13669 15207,13634 15116,13602 15031,13570 15013,13549 15031,13482 15041,13429 15038,13415 15017,13447 14992,13478 14974,13468 14943,13401 14918,13344 14883,13320 14847,13334 14809,13351 14798,13341 14816,13298 14826,13267 14819,13242 14798,13242 14777,13242 14738,13203 14717,13154 14696,13104 14650,13066 14611,13066 14576,13066 14548,13041 14548,13013 14548,12967 14392,12787 14354,12783 14343,12783 14311,12783 14283,12783 14255,12783 14230,12766 14230,12745 14230,12727 14244,12720 14265,12731 14287,12741 14301,12745 14301,12734 14301,12723 14269,12699 14227,12674 14160,12639 14156,12646 14177,12709 14202,12794 14177,12805 14110,12738 14085,12716 14022,12664 13973,12625 13920,12586 13877,12533 13877,12505 13877,12477 13867,12462 13856,12473 13817,12515 13584,12215 13450,11944 13408,11863 13362,11796 13345,11796 13306,11796 13084,11563 13084,11521 13084,11506 13002,11415 12907,11319 12808,11221 12692,11069 12646,10977 12600,10886 12533,10783 12498,10752 12459,10716 12431,10667 12431,10635 12431,10603 12396,10540 12350,10490 12226,10353 12145,10208 12166,10173 12177,10152 12173,10138 12152,10138 12131,10138 12089,10085 12057,10021 12025,9961 11965,9880 11926,9845 11888,9813 11870,9785 11884,9785 11902,9785 11877,9746 11831,9697 11785,9647 11764,9609 11782,9609 11799,9609 11796,9594 11778,9580 11711,9534 11584,9333 11584,9277 11584,9245 11560,9210 11531,9199 11503,9185 11478,9157 11478,9129 11478,9104 11433,9048 11376,9005 11309,8956 11281,8910 11295,8875 11309,8832 11299,8825 11249,8847 11210,8861 11193,8861 11207,8847 11221,8832 11175,8744 11108,8649 11041,8557 10985,8469 10985,8459 10985,8444 10946,8399 10896,8353 10847,8307 10808,8254 10808,8236 10808,8194 10734,8099 10572,7929 10508,7866 10455,7795 10455,7774 10455,7753 10424,7704 10385,7661 10346,7619 10314,7555 10314,7520 10314,7485 10304,7457 10286,7457 10272,7457 10230,7400 10194,7333 10156,7266 10113,7210 10096,7210 10081,7210 10067,7185 10067,7157 10067,7129 10039,7076 10007,7040 9919,6956 9679,6617 9679,6582 9679,6543 9362,6070 9312,6039 9291,6024 9288,6010 9302,6010 9319,6010 9263,5919 9178,5806 9094,5696 9013,5576 8991,5545 8974,5513 8921,5439 8875,5382 L 8794,5273 8953,5361 C 9196,5499 9965,5799 10067,5799 10117,5799 10300,5844 10473,5904 10840,6028 10875,6035 10685,5933 10607,5894 10353,5749 10120,5612 9087,5005 8628,4592 7951,3661 7862,3541 7577,3153 7316,2797 7055,2440 6772,2045 6695,1918 6617,1791 6504,1615 6448,1523 6391,1435 6176,1188 5972,976 5771,768 5495,465 5361,302 L 5121,13 4561,13 C 4254,13 4000,17 4000,20 4000,94 4194,546 4299,719 4635,1280 5315,2274 5517,2500 5834,2857 5961,3065 6042,3361 6084,3506 6130,3640 6152,3661 6169,3678 6187,3774 6187,3873 L 6187,4049 6257,3971 C 6296,3929 6328,3890 6328,3883 6328,3873 6353,3809 6384,3735 L 6437,3601 6603,3760 C 6695,3848 6882,4010 7016,4127 7153,4239 7263,4342 7263,4352 7263,4366 7291,4402 7323,4437 7379,4493 7457,4702 7457,4804 7457,4829 7478,4874 7503,4899 7608,5023 7633,5058 7633,5107 7633,5135 7651,5171 7672,5181 7711,5206 7788,5375 7781,5418 7778,5432 7813,5485 7862,5538 7912,5591 7951,5668 7951,5714 7951,5756 7968,5806 7986,5816 8007,5827 8021,5869 8021,5908 8021,5943 8039,5975 8057,5975 8078,5975 8092,5996 8092,6024 8092,6074 8265,6402 8307,6434 8353,6469 8448,6684 8430,6712 8420,6730 8434,6765 8466,6790 8497,6815 8554,6906 8596,6995 8635,7083 8677,7164 8692,7174 8702,7185 8762,7291 8826,7414 8886,7534 8953,7661 8970,7697 8991,7728 9013,7799 9027,7852 9037,7908 9065,7947 9087,7940 9111,7936 9136,7968 9143,8010 9150,8056 9171,8092 9189,8092 9210,8092 9214,8123 9203,8166 9185,8222 9189,8233 9221,8215 9249,8197 9259,8201 9245,8222 9235,8240 9245,8317 9274,8395 9302,8469 9323,8508 9326,8480 9326,8437 9334,8437 9358,8473 9372,8497 9379,8554 9372,8596 9358,8695 9379,8723 9563,8840 9976,9108 10981,9940 11478,10420 11694,10628 12195,10984 12276,10984 12364,10984 12699,11259 12840,11450 12925,11566 12988,11672 12981,11679 12974,11690 12777,11535 12547,11337 12149,10995 12001,10889 10949,10208 10695,10046 10420,9848 10339,9774 10258,9697 10103,9570 9997,9492 9891,9411 9707,9266 9591,9164 9157,8794 8593,8391 8303,8250 8035,8116 7453,7809 6889,7503 6631,7361 6257,7111 5975,6892 5848,6793 5626,6624 5485,6511 5340,6402 5171,6261 5111,6204 5047,6144 4941,6056 4874,6003 4691,5866 4307,5396 3612,4476 2641,3192 2169,2426 1851,1625 1692,1223 1424,391 1371,126 L 1347,13 962,13 C 751,13 578,27 578,45 L 578,45 Z M 31378,881 C 31421,966 31421,980 31347,1036 31248,1117 31135,1089 31107,980 31061,796 31287,715 31378,881 L 31378,881 Z M 28182,2486 C 28182,2539 28158,2574 28115,2581 28027,2599 27978,2539 28006,2451 28038,2345 28182,2373 28182,2486 L 28182,2486 Z M 32155,3668 C 32394,3738 32807,3985 33079,4222 33516,4606 34183,5449 34490,6014 34807,6596 34931,7009 35012,7742 35069,8272 35040,8635 34906,9093 34677,9866 34391,10494 34038,11002 33784,11369 33700,11454 33608,11436 33555,11425 33569,11397 33689,11267 33770,11178 33890,11020 33957,10914 34127,10649 34508,9880 34592,9644 34702,9323 34832,8515 34832,8152 34832,7718 34790,7510 34638,7196 34571,7054 34515,6920 34515,6903 34515,6885 34469,6829 34412,6779 34356,6726 34282,6638 34247,6578 34172,6455 34116,6451 34098,6568 34091,6610 34070,6635 34049,6624 34028,6610 34017,6698 34021,6878 34031,7333 34024,7446 33985,7386 33957,7344 33950,7347 33950,7407 33950,7503 33876,7598 33795,7612 33721,7622 33714,7640 33668,8003 33590,8600 33492,9072 33435,9118 33407,9139 33386,9171 33386,9189 33386,9206 33343,9288 33291,9372 33238,9453 33199,9531 33202,9545 33206,9563 33192,9573 33171,9573 33153,9573 33146,9587 33156,9609 33167,9626 33164,9644 33146,9644 33125,9644 33079,9697 33037,9757 32874,10011 32821,10085 32821,10057 32821,10042 32783,10057 32733,10088 32684,10120 32645,10166 32645,10187 32645,10212 32613,10265 32571,10311 32529,10353 32493,10409 32490,10438 32486,10462 32440,10547 32387,10621 32335,10699 32292,10808 32292,10868 32292,10970 32373,11175 32402,11147 32409,11136 32419,11185 32423,11249 32430,11404 32557,11570 32677,11595 32758,11612 32775,11640 32807,11799 32850,12000 32821,12148 32715,12290 32659,12364 32645,12367 32592,12325 32514,12261 32387,12261 32306,12325 32250,12371 32246,12371 32275,12325 32296,12283 32292,12283 32260,12311 32236,12335 32211,12445 32204,12558 32197,12674 32183,12812 32172,12872 32165,12928 32148,13189 32133,13450 32116,13888 32049,14258 31971,14357 31954,14378 31936,14438 31932,14491 31929,14540 31911,14583 31897,14583 31886,14583 31862,14618 31848,14660 31837,14706 31795,14784 31756,14837 31717,14897 31703,14935 31728,14935 31784,14935 31759,15151 31696,15218 31664,15249 31661,15270 31685,15281 31707,15288 31714,15316 31703,15345 31692,15369 31668,15383 31643,15369 31622,15355 31625,15373 31654,15405 31696,15457 31692,15464 31643,15464 31608,15464 31594,15479 31604,15500 31615,15517 31597,15535 31562,15535 31527,15535 31393,15637 31259,15764 31128,15891 30976,16022 30923,16054 30870,16089 30765,16167 30684,16223 30606,16283 30493,16350 30437,16371 30144,16480 29883,16540 29646,16547 29234,16562 29001,16590 28962,16629 28913,16678 28828,16674 28853,16618 28867,16597 28853,16604 28824,16636 28796,16671 28736,16699 28687,16699 28637,16699 28588,16710 28574,16727 28549,16749 28422,16766 28207,16773 28154,16777 28129,16794 28144,16823 28154,16851 28136,16861 28091,16851 28052,16840 28017,16854 28002,16890 27992,16921 27967,16936 27950,16925 27932,16914 27918,16932 27918,16964 27918,17010 27904,17006 27840,16946 27741,16854 27692,16854 27741,16946 27784,17024 27745,17041 27678,16974 27628,16925 27519,16904 27547,16946 27558,16964 27512,16988 27445,16999 27350,17017 27329,17038 27346,17080 27364,17130 27357,17133 27311,17094 27269,17059 27251,17059 27216,17098 27195,17126 27188,17158 27202,17168 27212,17182 27205,17193 27184,17193 27159,17193 27142,17175 27142,17158 27142,17119 27025,17108 26990,17147 26951,17182 26789,17193 26789,17154 26789,17091 26729,17123 26683,17211 26655,17260 26598,17309 26553,17320 26507,17334 26471,17359 26471,17380 26471,17398 26440,17387 26397,17348 26351,17306 26316,17295 26302,17324 26270,17369 26133,17419 26013,17422 25956,17426 25928,17447 25935,17479 25942,17507 25935,17518 25921,17500 25907,17486 25858,17500 25815,17528 25769,17556 25706,17571 25674,17556 25635,17542 25621,17546 25639,17574 25649,17595 25646,17620 25625,17634 25607,17645 25589,17641 25589,17620 25589,17578 25431,17634 25342,17708 25314,17733 25230,17747 25156,17740 25071,17729 25032,17740 25046,17761 25057,17782 25039,17796 25004,17789 24937,17782 24612,17923 24517,18001 24489,18026 24446,18036 24425,18022 24408,18011 24390,18015 24390,18036 24390,18057 24365,18061 24330,18050 24295,18036 24281,18043 24295,18064 24309,18086 24259,18117 24168,18138 24069,18163 23970,18230 23871,18329 23699,18505 23483,18936 23434,19207 23416,19313 23392,19444 23381,19504 23370,19560 23360,19627 23356,19652 23349,19775 22894,19348 22566,18911 22284,18530 22023,18022 21854,17528 21712,17112 21550,16286 21476,15609 21398,14875 21423,13683 21529,13119 21737,12039 22009,11425 22598,10720 23106,10109 24065,9429 24849,9122 26147,8610 27480,8356 28398,8444 29064,8508 29996,8741 30528,8977 30842,9115 31326,9415 31354,9485 31421,9661 31784,9355 31975,8963 32130,8638 32190,8370 32211,7898 32232,7414 32183,7104 31999,6628 31862,6261 31798,6166 31417,5746 31093,5386 30969,5277 30581,4991 30303,4786 30031,4543 29957,4426 29816,4215 29922,3897 30176,3763 30352,3671 30588,3657 31040,3721 31297,3756 31336,3753 31481,3689 31675,3601 31901,3594 32155,3668 L 32155,3668 Z M 2246,4797 C 2239,4821 2207,4832 2179,4821 2119,4800 2140,4751 2215,4751 2243,4751 2257,4772 2246,4797 L 2246,4797 Z M 40776,5682 C 41002,6162 41122,6215 41457,5989 41560,5919 41655,5869 41665,5883 41680,5897 41669,5982 41644,6074 41549,6409 41549,6398 41690,6398 41761,6398 41817,6405 41817,6416 41817,6472 41704,6638 41609,6733 41524,6811 41503,6857 41517,6927 41549,7090 41496,7122 41104,7143 40766,7164 40731,7160 40618,7086 40551,7040 40441,6995 40378,6980 40251,6956 40018,6772 40018,6698 40018,6674 40050,6631 40089,6606 40156,6557 40156,6550 40099,6264 40053,6028 40050,5950 40085,5834 40131,5675 40156,5665 40247,5763 40339,5866 40367,5852 40448,5665 40526,5485 40575,5411 40618,5411 40632,5411 40702,5534 40776,5682 L 40776,5682 Z M 23332,5968 C 23420,6010 23469,6067 23497,6158 23557,6345 23497,6522 23236,6910 22774,7594 22647,7979 22644,8674 22644,9104 22651,9146 22750,9379 22817,9542 22908,9683 23018,9792 L 23187,9958 22968,10134 C 22676,10367 22563,10490 22549,10596 22541,10653 22499,10702 22432,10734 22376,10762 22305,10808 22284,10840 22171,10981 21702,11771 21677,11856 21652,11940 21571,12138 21547,12177 21529,12208 21063,11708 20880,11461 20471,10910 20270,10332 20231,9609 20178,8568 20446,7460 20961,6631 21349,6003 21494,5915 21917,6046 22196,6130 22213,6130 22573,5996 22870,5887 23152,5876 23332,5968 L 23332,5968 Z M 2405,7153 C 2479,7220 2571,7280 2613,7294 2705,7323 2871,7510 2871,7584 2871,7668 2751,7640 2648,7531 2596,7471 2514,7414 2472,7400 2430,7386 2366,7344 2334,7301 2299,7259 2253,7206 2232,7181 2211,7157 2204,7125 2215,7114 2225,7100 2207,7062 2176,7023 2112,6956 2116,6952 2193,6995 2239,7019 2334,7090 2405,7153 L 2405,7153 Z M 5047,7266 C 5749,7880 6585,8420 7210,8656 7376,8720 7612,8815 7739,8871 7866,8924 8007,8981 8057,8995 8106,9009 8226,9090 8321,9182 8596,9439 8956,9711 9425,10025 9820,10289 10279,10632 10233,10632 10201,10632 10321,10956 10410,11118 10455,11200 10484,11284 10473,11302 10462,11319 10477,11344 10501,11362 10529,11376 10568,11443 10593,11510 10635,11637 10607,11686 10498,11690 10441,11690 10346,11602 10371,11573 10381,11563 10342,11545 10283,11531 10170,11506 9926,11284 9926,11203 9926,11147 9792,11009 9704,10974 9672,10963 9644,10928 9644,10903 9644,10871 9591,10847 9496,10833 9411,10822 9341,10794 9334,10776 9326,10755 9298,10737 9270,10737 9242,10737 9210,10713 9199,10684 9185,10656 9164,10639 9150,10649 9136,10660 9115,10635 9104,10596 9090,10543 9069,10533 9020,10550 8889,10600 8720,10822 8751,10903 8769,10946 8776,10946 8801,10907 8826,10871 8833,10868 8833,10907 8833,10935 8850,10942 8878,10928 8903,10910 8900,10928 8868,10967 8836,11006 8833,11023 8861,11006 8910,10977 8907,10974 8917,11214 8921,11309 8938,11415 8956,11443 8974,11471 8991,11510 8995,11531 8998,11549 9013,11598 9030,11637 9051,11697 9044,11693 8981,11623 8921,11556 8903,11549 8903,11595 8903,11630 8917,11655 8931,11655 8945,11655 8960,11686 8960,11722 8960,11760 8945,11782 8931,11775 8889,11746 8900,11813 8945,11859 8977,11891 8970,11905 8928,11923 8896,11933 8843,11937 8815,11923 8737,11894 8744,12064 8826,12110 8875,12138 8864,12145 8776,12138 8702,12134 8670,12117 8681,12085 8709,12011 8642,12039 8575,12127 8515,12205 8505,12208 8381,12163 8311,12138 8219,12117 8180,12113 8138,12113 8085,12092 8057,12067 8014,12032 8014,12036 8049,12081 8071,12113 8078,12152 8064,12166 8049,12184 8064,12180 8092,12166 8138,12138 8138,12141 8095,12194 8071,12226 8021,12254 7989,12254 7958,12254 7947,12244 7968,12226 7989,12212 8007,12177 8014,12148 8025,12110 8007,12113 7954,12163 7884,12226 7877,12226 7817,12173 7781,12138 7739,12124 7725,12138 7711,12152 7711,12138 7725,12103 7739,12057 7728,12043 7672,12043 7630,12043 7598,12025 7598,12004 7598,11983 7559,11972 7513,11979 7467,11983 7411,11972 7383,11951 7291,11877 7206,11866 7189,11919 7175,11947 7153,11972 7132,11972 7115,11972 7111,11954 7125,11933 7136,11912 7132,11884 7115,11870 7097,11859 7041,11767 6995,11672 6797,11281 6423,10579 6346,10459 6300,10388 6226,10244 6183,10138 6137,10032 6056,9870 6003,9781 5950,9693 5905,9601 5905,9577 5905,9556 5771,9397 5608,9228 5298,8910 4698,8166 4723,8127 4730,8116 4663,8014 4578,7898 4472,7760 4423,7661 4434,7615 4462,7503 4673,6963 4695,6963 4695,6963 4857,7100 5047,7266 L 5047,7266 Z M 31446,7986 C 31446,8003 31428,8021 31407,8021 31389,8021 31382,8003 31393,7986 31403,7965 31421,7951 31431,7951 31438,7951 31446,7965 31446,7986 L 31446,7986 Z M 4024,8596 C 4352,9023 4497,9238 4695,9591 4839,9855 4896,9986 4871,10004 4846,10018 4800,9979 4755,9908 4716,9841 4670,9796 4659,9810 4645,9820 4635,9806 4635,9774 4635,9728 4606,9721 4476,9736 4370,9750 4317,9739 4317,9714 4317,9693 4303,9683 4285,9693 4247,9718 4204,9616 4236,9566 4247,9542 4239,9538 4218,9552 4183,9573 4017,9446 4017,9397 4014,9340 3873,9150 3830,9150 3806,9150 3795,9132 3806,9115 3816,9093 3806,9069 3777,9058 3749,9048 3696,8984 3661,8917 3626,8850 3583,8797 3569,8797 3559,8797 3552,8755 3555,8702 3562,8631 3604,8582 3703,8529 3777,8487 3858,8451 3876,8448 3897,8448 3961,8515 4024,8596 L 4024,8596 Z M 39468,9312 C 39499,9340 39524,9379 39524,9397 39524,9443 39418,9538 39369,9538 39309,9538 39242,9464 39242,9397 39242,9330 39309,9256 39369,9256 39394,9256 39439,9280 39468,9312 L 39468,9312 Z M 35749,11125 C 35834,11210 35838,11291 35760,11379 35644,11506 35432,11425 35432,11249 35432,11164 35548,11055 35633,11055 35658,11055 35711,11087 35749,11125 L 35749,11125 Z M 33287,11732 C 33262,11757 33245,11760 33245,11739 33245,11690 33287,11648 33312,11672 33319,11683 33308,11711 33287,11732 L 33287,11732 Z M 33629,12554 C 33873,13242 33993,13944 34042,14974 34067,15517 34031,16138 33982,15941 33971,15881 33957,15701 33954,15535 33950,15214 33791,14068 33668,13454 33629,13249 33530,12875 33456,12618 33379,12364 33315,12110 33315,12053 L 33319,11954 33403,12060 C 33453,12117 33552,12339 33629,12554 L 33629,12554 Z M 14244,12875 C 14255,12903 14251,12918 14230,12907 14209,12896 14195,12872 14195,12850 14195,12801 14219,12812 14244,12875 L 14244,12875 Z M 34388,14706 C 34398,14734 34395,14784 34384,14819 34370,14851 34377,14868 34395,14854 34412,14844 34434,14865 34437,14904 34441,14939 34448,14999 34451,15038 34455,15076 34479,15098 34504,15087 34532,15076 34550,15098 34550,15143 34550,15186 34532,15218 34511,15218 34493,15218 34486,15196 34501,15172 34518,15140 34515,15140 34479,15172 34419,15225 34462,15285 34546,15263 34635,15242 34726,15408 34702,15546 34691,15599 34698,15641 34719,15641 34737,15641 34765,15666 34776,15697 34786,15726 34783,15740 34762,15729 34712,15697 34719,15757 34772,15814 34807,15853 34804,15856 34769,15835 34726,15814 34726,15824 34765,15891 34822,15997 34889,16064 34938,16064 34959,16064 34973,16092 34970,16124 34959,16244 34973,16276 35037,16276 35079,16276 35086,16283 35051,16304 34966,16361 35054,16473 35164,16456 35181,16452 35185,16480 35174,16523 35164,16569 35171,16586 35196,16569 35220,16555 35224,16569 35210,16607 35196,16639 35199,16657 35217,16646 35270,16615 35301,16699 35255,16752 35224,16791 35224,16816 35266,16854 35294,16883 35326,16900 35333,16893 35344,16883 35351,16900 35351,16928 35351,16957 35330,16978 35305,16974 35280,16967 35259,16978 35263,16999 35263,17017 35277,17031 35294,17024 35312,17020 35326,17041 35326,17073 35326,17101 35308,17115 35287,17101 35259,17087 35259,17101 35287,17154 35323,17218 35319,17228 35266,17228 35220,17228 35217,17239 35245,17257 35270,17271 35284,17320 35273,17366 35263,17426 35270,17436 35301,17408 35337,17380 35347,17401 35351,17486 35358,17578 35351,17585 35326,17528 35298,17461 35287,17465 35277,17546 35277,17567 35248,17599 35220,17616 35188,17638 35185,17652 35210,17652 35231,17652 35277,17662 35312,17676 35358,17694 35365,17687 35344,17648 35319,17606 35323,17606 35365,17648 35407,17687 35407,17698 35365,17712 35330,17726 35326,17736 35361,17757 35386,17772 35411,17832 35418,17884 35442,18096 35485,18195 35538,18163 35555,18153 35584,18174 35605,18209 35633,18258 35626,18273 35569,18273 35534,18273 35502,18251 35502,18227 35502,18206 35485,18174 35460,18160 35432,18142 35428,18160 35442,18216 35453,18262 35446,18325 35425,18354 35390,18400 35390,18403 35432,18368 35471,18333 35492,18333 35534,18368 35577,18400 35580,18400 35559,18368 35541,18336 35552,18329 35587,18343 35619,18354 35633,18382 35619,18407 35605,18428 35622,18424 35654,18396 35707,18354 35714,18357 35714,18407 35714,18438 35735,18474 35760,18484 35795,18495 35806,18562 35799,18710 35792,18830 35802,18929 35827,18943 35852,18957 35848,18978 35816,18999 35781,19024 35788,19027 35848,19017 35940,18996 35950,19045 35866,19094 35813,19123 35809,19140 35848,19200 35901,19292 35901,19320 35852,19289 35823,19271 35816,19289 35831,19348 35848,19416 35838,19437 35792,19440 35760,19444 35629,19468 35502,19497 35231,19557 34994,19504 34882,19352 34860,19324 34829,19310 34807,19320 34769,19345 34656,19225 34656,19158 34656,19130 34617,19077 34568,19035 34518,18992 34479,18932 34479,18904 34479,18876 34462,18851 34441,18851 34419,18851 34409,18819 34419,18781 34437,18717 34370,18618 34335,18657 34324,18664 34314,18639 34314,18597 34310,18555 34289,18505 34264,18484 34232,18456 34229,18456 34247,18488 34261,18512 34254,18534 34232,18534 34211,18534 34204,18498 34218,18445 34236,18378 34225,18357 34183,18357 34148,18357 34137,18336 34148,18304 34162,18269 34155,18258 34120,18269 34088,18283 34017,18244 33950,18181 33862,18096 33844,18064 33876,18026 33908,17987 33901,17973 33848,17959 33781,17941 33781,17927 33904,17630 34208,16879 34317,16198 34296,15221 34289,14812 34296,14653 34324,14653 34349,14653 34374,14678 34388,14706 L 34388,14706 Z M 16481,15200 C 16470,15211 16449,15193 16438,15158 16417,15108 16421,15105 16456,15136 16481,15161 16491,15189 16481,15200 L 16481,15200 Z M 12283,15853 C 12420,15937 12456,15941 12396,15870 12371,15842 12364,15817 12382,15817 12427,15817 12646,15955 12738,16036 12780,16075 12830,16096 12851,16085 12868,16071 12897,16082 12911,16103 12928,16131 12921,16135 12890,16117 12858,16099 12851,16103 12868,16131 12882,16152 12911,16163 12928,16149 12964,16128 13454,16505 13454,16555 13454,16625 13398,16615 13232,16509 13129,16445 12907,16315 12731,16223 12558,16128 12374,16015 12325,15969 12276,15923 12205,15863 12166,15835 12061,15757 12149,15771 12283,15853 L 12283,15853 Z M 38794,16279 C 38850,16371 38794,16519 38692,16544 38529,16586 38392,16364 38508,16248 38568,16188 38748,16209 38794,16279 L 38794,16279 Z M 14650,17313 C 14847,17486 14999,17634 14992,17645 14936,17701 14131,17087 14004,16893 L 13941,16794 14117,16897 C 14212,16953 14456,17140 14650,17313 L 14650,17313 Z M 37594,17482 C 37623,17560 37549,17652 37460,17652 37309,17652 37259,17429 37400,17394 37474,17380 37573,17422 37594,17482 L 37594,17482 Z M 26687,17521 C 26651,17553 26648,17549 26669,17500 26680,17465 26701,17447 26711,17458 26722,17468 26711,17496 26687,17521 L 26687,17521 Z M 42699,17581 C 42703,17553 42720,17592 42734,17669 42791,17944 42741,18174 42558,18498 42491,18615 41951,19151 41845,19204 41799,19229 41842,19169 41944,19066 42163,18848 42307,18604 42223,18604 42195,18604 42061,18692 41934,18798 41803,18904 41687,18978 41676,18957 41665,18939 41538,18989 41387,19077 41073,19253 40822,19359 40529,19437 40311,19490 40159,19571 40159,19624 40159,19670 40392,19638 40526,19574 40716,19490 40900,19419 40900,19433 40900,19440 40822,19490 40723,19543 40628,19595 40540,19666 40529,19701 40508,19761 40367,19832 40187,19860 40103,19878 40089,19864 40071,19761 40057,19694 40053,19581 40060,19504 40071,19370 40074,19366 40265,19324 40498,19271 41112,19003 41429,18816 41821,18583 42177,18195 42396,17761 42449,17659 42501,17581 42512,17595 42537,17620 42628,17528 42632,17468 42636,17444 42650,17468 42664,17528 42678,17585 42696,17609 42699,17581 L 42699,17581 Z M 33739,18519 C 33739,18530 33724,18527 33703,18516 33650,18484 33661,18558 33721,18615 33749,18643 33760,18675 33749,18689 33735,18699 33749,18710 33774,18710 33813,18710 33813,18721 33781,18752 33753,18781 33728,18781 33686,18745 33640,18706 33633,18710 33650,18756 33664,18784 33710,18816 33756,18826 33806,18833 33834,18826 33823,18812 33813,18795 33830,18791 33858,18802 33922,18826 33936,18886 33876,18886 33858,18886 33848,18900 33858,18918 33873,18936 33848,18943 33809,18932 33770,18922 33749,18900 33760,18883 33770,18865 33756,18858 33731,18869 33707,18879 33545,18840 33372,18784 L 33061,18682 33248,18544 C 33354,18467 33460,18375 33488,18343 33534,18287 33545,18290 33640,18392 33693,18452 33739,18509 33739,18519 L 33739,18519 Z M 22125,18664 C 22319,19003 22668,19426 22933,19645 23025,19722 23254,19888 23445,20019 L 23787,20252 23674,20357 C 23610,20417 23508,20477 23448,20491 23335,20513 23085,20456 23085,20410 23085,20372 22774,20054 22757,20072 22721,20107 22407,19698 22372,19571 22347,19472 22330,19451 22305,19490 22280,19532 22273,19532 22270,19486 22266,19458 22266,19423 22270,19405 22270,19391 22256,19380 22235,19380 22217,19380 22206,19366 22217,19352 22227,19334 22203,19285 22164,19246 22125,19204 22111,19169 22132,19169 22153,19169 22129,19105 22079,19027 22030,18950 22002,18886 22012,18886 22026,18886 22016,18865 21995,18837 21963,18802 21963,18781 21991,18763 22019,18745 22016,18721 21977,18682 21914,18608 21864,18357 21914,18357 21931,18357 22026,18495 22125,18664 L 22125,18664 Z M 39633,18731 C 39686,18865 39690,18929 39658,19109 39605,19416 39450,19729 39231,19959 39083,20118 39023,20156 38935,20156 38871,20156 38783,20174 38734,20195 38684,20220 38617,20223 38582,20209 38487,20167 38452,20167 38399,20206 38360,20234 38353,20234 38370,20206 38385,20177 38339,20170 38222,20185 37958,20209 37968,20135 38243,20054 38776,19892 39365,19451 39450,19147 39475,19073 39499,18904 39513,18770 39524,18639 39542,18541 39556,18551 39566,18562 39602,18643 39633,18731 L 39633,18731 Z M 37598,18717 C 37626,18766 37619,18795 37563,18855 37499,18915 37474,18922 37411,18890 37340,18851 37309,18713 37362,18661 37404,18618 37559,18654 37598,18717 L 37598,18717 Z M 44463,19172 C 44488,19130 44745,19221 44897,19327 44967,19377 44946,19380 44629,19380 L 44287,19380 44350,19260 C 44382,19193 44417,19154 44424,19176 44431,19197 44445,19197 44463,19172 L 44463,19172 Z M 38871,19479 L 39013,19504 38900,19585 C 38699,19729 38346,19871 38088,19916 L 37834,19959 37683,19849 C 37541,19751 37513,19744 37280,19754 37076,19765 37030,19758 37030,19715 37030,19680 37065,19662 37125,19662 37256,19662 37584,19560 37644,19500 37683,19461 37810,19451 38212,19454 38497,19454 38794,19465 38871,19479 L 38871,19479 Z M 37919,20297 C 37930,20315 37922,20333 37905,20333 37884,20333 37866,20315 37866,20297 37866,20276 37873,20262 37880,20262 37891,20262 37908,20276 37919,20297 L 37919,20297 Z M 25738,20855 L 26401,20985 26422,21091 C 26433,21148 26415,21264 26387,21342 26351,21444 26348,21500 26373,21525 26415,21567 26376,21649 26330,21620 26313,21610 26284,21656 26260,21723 26203,21895 26062,21948 25865,21867 25780,21836 25667,21800 25607,21790 25551,21783 25438,21758 25360,21740 25283,21719 25191,21701 25159,21694 25124,21691 25085,21677 25074,21663 25060,21649 25018,21638 24983,21638 24947,21638 24919,21620 24919,21599 24919,21582 24905,21571 24887,21582 24831,21617 24499,21412 24284,21204 24076,21003 24073,20996 24094,20851 24104,20770 24122,20678 24132,20650 24147,20622 24157,20590 24161,20580 24207,20442 24203,20442 24648,20587 24884,20661 25374,20784 25738,20855 L 25738,20855 Z M 22227,21239 C 22252,21215 22450,21324 22450,21363 22450,21377 22510,21430 22580,21479 22654,21529 22697,21567 22679,21567 22661,21567 22704,21610 22778,21659 22870,21719 22908,21768 22894,21804 22880,21843 22887,21850 22926,21839 22954,21825 22986,21832 22997,21850 23011,21871 23000,21885 22979,21885 22954,21885 22961,21917 22993,21963 23060,22054 23067,22146 23007,22111 22982,22097 22979,22100 22993,22125 23007,22149 23042,22157 23078,22139 23109,22125 23180,22114 23236,22118 23289,22118 23332,22107 23332,22089 23332,22072 23385,22093 23448,22139 23632,22266 23790,22435 23790,22499 23790,22530 23811,22552 23836,22548 23857,22541 23875,22559 23868,22580 23864,22605 23893,22626 23931,22626 23970,22626 24013,22650 24023,22679 24037,22707 24058,22721 24076,22710 24094,22700 24108,22714 24108,22742 24108,22813 24327,22844 24376,22781 24397,22756 24425,22742 24439,22756 24454,22770 24492,22784 24524,22784 24732,22799 24746,22802 24722,22844 24700,22876 24711,22876 24753,22844 24803,22802 24820,22802 24863,22844 24887,22869 24954,22922 25011,22961 25064,23000 25127,23053 25156,23077 25191,23113 25215,23116 25251,23088 25275,23067 25304,23060 25314,23067 25325,23077 25392,23095 25459,23102 25572,23116 25589,23109 25611,23031 25621,22982 25646,22943 25660,22943 25678,22943 25681,22887 25674,22816 25664,22717 25671,22693 25709,22707 25734,22717 25773,22710 25794,22689 25822,22661 25850,22665 25893,22700 25932,22732 25946,22732 25928,22707 25910,22675 25921,22668 25956,22682 25988,22693 26013,22717 26013,22732 26013,22749 26062,22770 26119,22784 26179,22799 26224,22820 26224,22837 26224,22855 26256,22876 26291,22890 26330,22901 26394,22971 26433,23049 26570,23314 26895,23659 27237,23899 27449,24051 27512,24118 27607,24305 27706,24499 27759,24552 27882,24584 27893,24587 27950,24608 28006,24633 28066,24658 28320,24700 28570,24728 29050,24778 29399,24845 29399,24880 29399,24894 29237,24890 29040,24873 27854,24774 26249,25085 25946,25469 25907,25518 25865,25617 25850,25688 25794,25977 26009,27028 26260,27706 26485,28319 26482,28397 26249,27931 25967,27367 25773,26859 25731,26552 25699,26344 25674,26270 25642,26280 25596,26298 25448,26122 25448,26051 25448,26030 25434,26012 25413,26012 25395,26012 25378,25991 25378,25966 25378,25875 25240,25790 25071,25779 24863,25762 24707,25702 24707,25635 24707,25610 24683,25578 24655,25568 24626,25554 24602,25525 24602,25497 24602,25469 24584,25448 24563,25448 24545,25448 24535,25434 24545,25416 24595,25335 24355,25169 24150,25144 24016,25127 23886,25039 23917,24986 23928,24968 23914,24954 23886,24954 23857,24954 23790,24898 23737,24827 23684,24760 23635,24711 23624,24721 23607,24735 23385,24584 23159,24400 23095,24344 23021,24305 22993,24312 22965,24319 22944,24305 22944,24284 22944,24266 22933,24252 22919,24255 22873,24263 22697,24181 22697,24153 22697,24136 22661,24086 22616,24037 22570,23987 22506,23906 22471,23853 22432,23790 22390,23765 22354,23779 22316,23793 22305,23786 22323,23762 22337,23737 22333,23719 22316,23719 22298,23719 22273,23688 22263,23649 22252,23610 22220,23578 22189,23578 22157,23578 22132,23553 22132,23522 22132,23494 22118,23476 22100,23490 22069,23508 22005,23377 22019,23321 22023,23307 22012,23296 21991,23296 21973,23296 21956,23271 21956,23243 21956,23148 21846,23014 21712,22943 21642,22904 21547,22834 21501,22784 21455,22735 21409,22703 21398,22714 21370,22742 21282,22601 21264,22495 21247,22403 21377,22026 21423,22026 21437,22026 21494,21941 21547,21839 21691,21571 21892,21320 21981,21299 22023,21289 22065,21253 22076,21225 22093,21183 22108,21179 22150,21215 22182,21239 22213,21250 22227,21239 L 22227,21239 Z M 41909,21352 C 41888,21387 42050,21440 42096,21412 42110,21402 42124,21416 42124,21444 42124,21472 42110,21486 42092,21476 42078,21465 42075,21483 42089,21518 42106,21567 42117,21564 42152,21497 42180,21444 42205,21430 42219,21458 42233,21479 42226,21497 42209,21497 42188,21497 42170,21511 42170,21532 42170,21553 42219,21560 42286,21550 42350,21539 42442,21546 42491,21564 42551,21589 42558,21599 42516,21599 42480,21603 42452,21624 42452,21652 42452,21680 42431,21712 42410,21719 42382,21730 42389,21740 42427,21740 42459,21744 42487,21723 42491,21698 42494,21649 42551,21776 42554,21839 42558,21864 42540,21885 42519,21885 42501,21885 42494,21867 42509,21843 42523,21818 42519,21814 42494,21828 42463,21846 42466,21881 42505,21959 42554,22051 42554,22061 42509,22061 42477,22061 42463,22082 42473,22111 42487,22149 42438,22167 42251,22188 41926,22224 41870,22231 41863,22238 41856,22245 41842,22248 41828,22252 41810,22259 41708,22301 41591,22354 41478,22407 41373,22449 41358,22449 41344,22449 41320,22478 41306,22509 41263,22612 41224,22837 41253,22820 41270,22809 41323,22827 41380,22851 41436,22883 41500,22894 41531,22876 41616,22834 41877,22827 41902,22866 41930,22911 41754,23024 41704,22993 41683,22978 41676,22982 41687,23003 41715,23049 41563,23081 41369,23067 41284,23063 41228,23070 41235,23084 41253,23113 40963,23155 40752,23155 40681,23155 40614,23141 40604,23123 40575,23081 40910,23024 41270,23014 41334,23014 41330,23007 41253,22964 41196,22936 41150,22933 41122,22954 41041,23014 40981,22957 40999,22841 41006,22781 41030,22732 41048,22732 41069,22732 41076,22707 41062,22679 41052,22643 41066,22626 41108,22626 41147,22626 41182,22594 41193,22552 41203,22509 41228,22488 41246,22499 41267,22509 41291,22492 41302,22460 41316,22428 41306,22389 41281,22375 41253,22358 41274,22319 41351,22245 41415,22185 41464,22121 41464,22104 41464,22082 41567,22033 41690,21991 41923,21913 42018,21846 41976,21779 41948,21730 42004,21733 42053,21783 42085,21814 42096,21807 42089,21747 42082,21659 42029,21652 41888,21726 41828,21758 41782,21765 41782,21744 41782,21726 41796,21709 41814,21709 41831,21709 41856,21670 41866,21620 41881,21571 41912,21532 41941,21532 41972,21532 41983,21511 41972,21479 41958,21451 41937,21433 41923,21444 41888,21465 41849,21370 41877,21342 41909,21310 41930,21317 41909,21352 L 41909,21352 Z M 41711,21409 C 41747,21455 41743,21462 41683,21462 41630,21462 41612,21444 41627,21409 41641,21380 41651,21356 41658,21356 41662,21356 41687,21380 41711,21409 L 41711,21409 Z M 52534,24986 C 52556,25123 52414,25180 52340,25060 52305,25007 52305,24982 52351,24936 52429,24859 52520,24883 52534,24986 L 52534,24986 Z M 42780,26633 C 42918,26739 43115,26968 43369,27310 43669,27713 43814,27875 44011,28027 44332,28274 44371,28291 44579,28323 44766,28351 44865,28429 45017,28669 45070,28750 45144,28856 45183,28905 45253,28986 45246,28983 45116,28887 45038,28834 44911,28736 44833,28676 44756,28616 44502,28432 44269,28270 44036,28108 43761,27893 43655,27787 43553,27681 43458,27607 43447,27617 43419,27642 43062,27437 42886,27296 42791,27219 42731,27138 42717,27060 42703,27000 42646,26841 42590,26707 42526,26556 42505,26471 42533,26471 42558,26471 42667,26545 42780,26633 L 42780,26633 Z M 43779,27148 C 43955,27261 44114,27388 44135,27430 44308,27811 44385,28058 44329,28058 44290,28058 43934,27780 43934,27748 43934,27734 43821,27596 43687,27441 43549,27286 43440,27141 43440,27120 43440,27095 43415,27071 43387,27056 43359,27046 43334,27007 43334,26968 43334,26877 43376,26891 43779,27148 L 43779,27148 Z M 45221,28005 C 45415,28122 45676,28274 45800,28337 45927,28404 46188,28549 46382,28665 46827,28930 47666,29399 47765,29434 47807,29452 48005,29572 48206,29702 48583,29946 48887,30104 48978,30104 49010,30104 49091,30143 49162,30193 49232,30238 49564,30425 49899,30602 50238,30782 50636,31004 50788,31099 50940,31191 51074,31269 51081,31269 51092,31269 51282,31388 51504,31533 51727,31678 51998,31844 52111,31896 52400,32041 52873,32313 53159,32503 53406,32666 54034,33029 54958,33544 55508,33851 55999,34161 55999,34204 55999,34253 55918,34232 55759,34140 55607,34052 55290,33928 54623,33703 53212,33226 50742,32302 50658,32221 50626,32189 50760,32203 50898,32242 51017,32281 50926,32196 50714,32080 50605,32016 50506,31953 50495,31939 50485,31928 50393,31868 50291,31815 50157,31741 50083,31674 50030,31575 49956,31424 49659,31092 49606,31092 49589,31092 49670,31272 49786,31494 49906,31717 50001,31914 50001,31935 50001,32013 49815,31967 48975,31678 47345,31113 47088,31011 46961,30866 46827,30715 46837,30690 47003,30775 47077,30813 47172,30845 47211,30845 47250,30845 47476,30909 47712,30986 48139,31127 48333,31163 48291,31092 48252,31032 48336,31053 48559,31166 48679,31226 48897,31332 49045,31396 49194,31459 49310,31530 49307,31547 49299,31568 49324,31572 49356,31561 49391,31547 49405,31554 49391,31575 49377,31597 49402,31604 49455,31593 49522,31583 49564,31604 49617,31671 49691,31762 49815,31801 49772,31717 49758,31695 49776,31706 49804,31741 49857,31805 49860,31805 49860,31748 49860,31713 49829,31678 49793,31667 49755,31657 49716,31614 49705,31572 49680,31477 49448,31163 49402,31163 49381,31163 49366,31184 49366,31212 49366,31283 49056,31134 49031,31053 49021,31022 48957,30965 48890,30930 48823,30895 48767,30845 48767,30824 48767,30803 48580,30662 48354,30510 48125,30358 47804,30143 47638,30034 47472,29921 47123,29709 46862,29558 45962,29036 45539,28778 45239,28559 44749,28199 44537,28027 44477,27935 44414,27836 44354,27600 44378,27557 44399,27526 44685,27677 45221,28005 L 45221,28005 Z M 46721,28552 C 46827,28587 46964,28623 47021,28626 47081,28633 47144,28647 47162,28662 47183,28672 47243,28679 47303,28676 47363,28672 47437,28697 47479,28736 47536,28792 47553,28796 47585,28753 47617,28711 47627,28711 47666,28750 47701,28792 47701,28799 47656,28799 47610,28799 47610,28810 47670,28873 47708,28919 47754,28937 47783,28923 47807,28905 47818,28909 47804,28930 47790,28951 47804,28976 47832,28990 47860,29000 47899,28979 47920,28947 47952,28894 47955,28898 47938,28961 47920,29032 47945,29060 48061,29099 48072,29103 48125,29124 48178,29145 48234,29170 48294,29187 48312,29187 48329,29187 48343,29201 48343,29215 48343,29230 48389,29261 48446,29282 48530,29314 48559,29311 48608,29261 48643,29230 48661,29222 48650,29244 48636,29268 48654,29307 48686,29332 48728,29367 48735,29367 48717,29335 48703,29314 48710,29293 48728,29293 48749,29293 48767,29318 48767,29346 48767,29374 48749,29399 48728,29399 48700,29399 48700,29417 48731,29452 48756,29480 48799,29505 48823,29505 48851,29505 48873,29522 48873,29544 48873,29586 49088,29808 49120,29797 49130,29797 49134,29805 49130,29819 49120,29861 49702,30246 49970,30373 50114,30443 50277,30503 50337,30514 50615,30549 50788,30644 51035,30895 51166,31032 51448,31198 51547,31198 51730,31198 52026,31346 52220,31530 52633,31932 53173,32295 53819,32606 54140,32761 54429,32930 54612,33075 55138,33477 55021,33427 53706,32680 53307,32450 52785,32158 52541,32027 51832,31639 50626,30951 49543,30316 48989,29992 48079,29459 47514,29134 46569,28587 46262,28393 46456,28461 46495,28475 46615,28517 46721,28552 L 46721,28552 Z M 39164,29095 C 39404,29653 39662,30602 39803,31427 39937,32210 40025,33350 39951,33350 39930,33350 39912,33286 39912,33198 39912,33043 39746,31650 39648,30951 39616,30739 39482,30305 39436,30274 39418,30260 39411,30246 39425,30246 39436,30246 39425,30147 39394,30023 39365,29903 39334,29769 39327,29727 39309,29632 39140,29173 38998,28827 38938,28686 38917,28609 38953,28655 38984,28704 39080,28901 39164,29095 L 39164,29095 Z M 45451,29191 C 45497,29272 45497,29328 45451,29328 45433,29328 45415,29300 45415,29268 45415,29237 45387,29180 45355,29145 45299,29081 45299,29081 45355,29103 45391,29113 45433,29155 45451,29191 L 45451,29191 Z M 48449,29152 C 48449,29170 48442,29187 48435,29187 48425,29187 48407,29170 48396,29152 48386,29131 48393,29117 48410,29117 48432,29117 48449,29131 48449,29152 L 48449,29152 Z M 42173,29215 C 42149,29222 42110,29212 42092,29194 42064,29166 42078,29163 42138,29177 42184,29191 42202,29205 42173,29215 L 42173,29215 Z M 42628,29328 C 42875,29399 43740,29663 44251,29826 44378,29865 44562,29928 44657,29963 44826,30030 44833,30030 44890,29967 44981,29857 45151,29840 45295,29924 45362,29967 45426,29999 45437,29999 45444,29999 45451,29917 45451,29822 45451,29723 45465,29646 45486,29646 45542,29646 45585,29762 45609,30009 45624,30140 45648,30256 45666,30267 45712,30291 45705,30411 45659,30443 45638,30454 45571,30440 45511,30411 45447,30380 45327,30334 45239,30305 44816,30171 42957,29526 42632,29402 42293,29272 42124,29187 42293,29233 42332,29244 42484,29286 42628,29328 L 42628,29328 Z M 44008,29558 C 44128,29614 44128,29614 44022,29593 43966,29579 43902,29554 43884,29536 43835,29491 43874,29498 44008,29558 L 44008,29558 Z M 44498,29685 C 44675,29727 44819,29833 44784,29886 44763,29921 44706,29910 44530,29840 44403,29787 44262,29716 44212,29678 L 44128,29611 44251,29632 C 44318,29642 44431,29667 44498,29685 L 44498,29685 Z M 26461,29900 C 26641,29984 26672,30023 26609,30090 26531,30164 26309,30164 26228,30090 26172,30037 26126,30030 25977,30051 L 25794,30076 25808,30200 C 25822,30309 25808,30330 25699,30401 25508,30517 24926,30746 24884,30722 24782,30658 24940,30295 25163,30094 25360,29917 25487,29857 25685,29854 25776,29854 25918,29840 25995,29826 26164,29790 26263,29808 26461,29900 L 26461,29900 Z M 42981,29801 C 42981,29812 42967,29829 42946,29840 42928,29850 42911,29843 42911,29826 42911,29805 42928,29787 42946,29787 42967,29787 42981,29794 42981,29801 L 42981,29801 Z M 43087,29857 C 43055,29879 43052,29893 43077,29893 43098,29893 43126,29879 43136,29861 43147,29847 43211,29850 43274,29868 43373,29900 43390,29921 43376,29988 43369,30034 43380,30069 43401,30069 43419,30069 43429,30044 43415,30013 43376,29907 43532,29949 44375,30263 44512,30313 44696,30380 44791,30411 44950,30468 45013,30528 44904,30528 44876,30528 44851,30552 44851,30581 44851,30609 44802,30644 44738,30662 44657,30683 44625,30711 44632,30750 44639,30785 44615,30821 44579,30831 44544,30842 44477,30870 44428,30891 44378,30912 44325,30930 44304,30933 44234,30937 44181,30993 44181,31060 44181,31099 44198,31120 44216,31110 44262,31082 44248,31170 44198,31209 44177,31226 44195,31233 44241,31223 44297,31209 44311,31219 44297,31261 44279,31300 44290,31311 44332,31293 44371,31279 44392,31290 44392,31325 44392,31353 44378,31371 44361,31357 44343,31346 44315,31353 44304,31374 44290,31396 44294,31410 44311,31406 44375,31396 44438,31410 44417,31434 44389,31459 44491,31586 44541,31586 44558,31586 44548,31551 44519,31508 44449,31410 44449,31371 44512,31396 44544,31406 44555,31438 44544,31470 44530,31508 44537,31519 44562,31501 44590,31484 44604,31501 44604,31547 44604,31628 44466,31681 44368,31639 44258,31593 44075,31558 44075,31583 44075,31611 43503,31611 43458,31583 43405,31551 43158,31590 43158,31628 43158,31650 43133,31653 43101,31642 43073,31632 43059,31635 43069,31657 43087,31685 42960,31710 42868,31695 42851,31695 42840,31724 42840,31762 42840,31826 42819,31836 42692,31833 42607,31833 42494,31833 42442,31833 42367,31833 42336,31851 42322,31904 42307,31960 42293,31967 42255,31935 42216,31904 42205,31907 42205,31939 42205,31967 42173,31978 42117,31967 42068,31956 42029,31960 42029,31974 42029,31992 41993,31995 41951,31981 41895,31967 41884,31974 41905,32009 41926,32045 41909,32052 41838,32038 41789,32027 41747,32034 41747,32048 41747,32105 41644,32080 41609,32016 41574,31960 41574,31960 41570,32027 41570,32080 41560,32083 41528,32052 41503,32027 41457,32009 41426,32009 41394,32009 41344,31985 41320,31949 41291,31918 41217,31872 41157,31844 41094,31819 41041,31784 41037,31769 41037,31755 41030,31713 41023,31674 L 41009,31604 41066,31674 C 41101,31720 41115,31727 41101,31688 41090,31657 41094,31611 41112,31586 41126,31561 41129,31501 41115,31452 41094,31378 41108,31343 41182,31283 41288,31191 41803,30916 41902,30895 42004,30877 42170,30796 42170,30768 42170,30750 42195,30739 42223,30739 42300,30739 42420,30665 42498,30570 42533,30528 42576,30500 42593,30510 42611,30521 42632,30514 42646,30492 42657,30475 42650,30457 42632,30457 42611,30457 42593,30422 42593,30376 42597,30309 42600,30305 42639,30355 42692,30425 42812,30418 42890,30344 42960,30270 42964,30207 42893,30231 42826,30260 42826,30196 42893,30140 42921,30115 42964,30034 42981,29960 43006,29868 43038,29822 43080,29822 43133,29822 43133,29829 43087,29857 L 43087,29857 Z M 46040,30002 C 46273,30200 46685,30683 46685,30761 46685,30799 46393,30739 46301,30683 46255,30651 46153,30609 46072,30584 45976,30556 45913,30514 45888,30457 45832,30334 45789,29857 45835,29857 45853,29857 45945,29921 46040,30002 L 46040,30002 Z M 28856,30161 C 29135,30224 29244,30277 29361,30401 29410,30450 29466,30492 29491,30492 29541,30492 29999,31004 29999,31057 29999,31156 29900,31110 29717,30926 29604,30810 29459,30694 29396,30669 29332,30641 29209,30567 29124,30500 28941,30362 28856,30330 28535,30298 28380,30281 28295,30256 28281,30221 28232,30097 28475,30073 28856,30161 L 28856,30161 Z M 27374,30207 C 27431,30224 27572,30260 27688,30284 27950,30337 28024,30373 28024,30443 28024,30489 28069,30496 28334,30475 L 28641,30454 28948,30641 C 29297,30856 29435,30969 29523,31113 29558,31170 29608,31233 29629,31251 29678,31293 29858,31639 29858,31688 29858,31710 29819,31710 29756,31692 29590,31646 29491,31586 29392,31470 29343,31406 29287,31367 29272,31385 29258,31399 29272,31438 29304,31473 29336,31508 29375,31590 29385,31650 29406,31748 29399,31762 29332,31762 29294,31762 29258,31741 29258,31717 29258,31635 29071,31385 28941,31290 28652,31082 28461,30993 28140,30916 27579,30782 26958,30838 26383,31075 26207,31149 26030,31198 25903,31216 25836,31223 25713,31247 25625,31269 25459,31311 25314,31304 24905,31237 24676,31198 24640,31202 24383,31290 24094,31385 24104,31378 23385,32038 23272,32143 23169,32214 23162,32193 23155,32172 23243,32002 23356,31815 23522,31537 23600,31445 23790,31304 23917,31212 24118,31103 24238,31060 24517,30969 25138,30944 25187,31029 25212,31067 25808,31064 25872,31022 25918,30990 25918,30983 25872,30951 25843,30933 25787,30930 25748,30944 25632,30983 25413,30962 25265,30895 L 25124,30831 25201,30768 C 25251,30729 25339,30704 25431,30704 25561,30704 25611,30679 25748,30563 25836,30485 25921,30422 25935,30422 25949,30422 26168,30365 26418,30298 26881,30178 27184,30147 27374,30207 L 27374,30207 Z M 35954,30246 C 36003,30246 36007,30253 35961,30277 35898,30320 35855,30295 35859,30217 35859,30178 35869,30175 35880,30200 35887,30224 35922,30246 35954,30246 L 35954,30246 Z M 42826,30337 C 42830,30369 42826,30383 42812,30373 42801,30358 42787,30323 42784,30295 42780,30263 42784,30249 42798,30260 42808,30274 42823,30309 42826,30337 L 42826,30337 Z M 34649,30323 C 34638,30348 34599,30383 34557,30404 34451,30454 34458,30489 34578,30478 34631,30475 34670,30450 34663,30425 34659,30401 34670,30394 34695,30404 34719,30422 34719,30443 34698,30464 34677,30485 34666,30521 34670,30542 34677,30563 34673,30570 34666,30552 34635,30500 34578,30531 34603,30588 34659,30725 34684,30845 34656,30828 34638,30817 34606,30838 34589,30870 34561,30919 34553,30898 34571,30789 34592,30648 34589,30644 34493,30651 34395,30655 34296,30584 34275,30500 34264,30432 34486,30309 34522,30362 34539,30390 34550,30387 34550,30341 34550,30309 34575,30281 34606,30281 34638,30281 34656,30302 34649,30323 L 34649,30323 Z M 30842,30478 C 31026,30528 31280,30609 31407,30665 31534,30718 31710,30789 31798,30821 32003,30898 32215,31029 32162,31046 32140,31053 32013,31029 31879,30993 31749,30955 31601,30916 31551,30905 31255,30852 30362,30588 30285,30531 30232,30492 30147,30450 30094,30440 30041,30425 30010,30397 30020,30380 30052,30330 30447,30376 30842,30478 L 30842,30478 Z M 34529,30743 C 34501,30792 34455,30782 34455,30725 34455,30697 34476,30683 34504,30694 34529,30704 34539,30725 34529,30743 L 34529,30743 Z M 34762,30933 C 34762,30962 34747,30986 34733,30986 34716,30986 34702,30962 34702,30933 34702,30905 34716,30880 34733,30880 34747,30880 34762,30905 34762,30933 L 34762,30933 Z M 31192,31106 C 31308,31166 31333,31212 31269,31251 31209,31286 30881,31092 30881,31018 30881,30983 31043,31029 31192,31106 L 31192,31106 Z M 34991,31374 C 34980,31392 34952,31410 34934,31410 34913,31410 34910,31392 34920,31374 34931,31353 34959,31339 34977,31339 34998,31339 35001,31353 34991,31374 L 34991,31374 Z M 48657,31819 C 48749,31865 48763,31886 48728,31925 48696,31963 48703,31974 48767,31974 48813,31974 48869,32002 48897,32034 48929,32073 48940,32076 48922,32045 48904,32006 48908,32002 48940,32031 48996,32080 48975,32242 48915,32232 48890,32225 48876,32253 48883,32302 48887,32348 48873,32376 48848,32369 48774,32355 48795,32426 48869,32450 48950,32475 48989,32560 48950,32630 48926,32673 48894,32655 48781,32542 48707,32461 48622,32397 48597,32397 48573,32397 48506,32373 48449,32344 48393,32316 48343,32309 48336,32327 48329,32344 48227,32295 48107,32221 47987,32143 47885,32098 47878,32115 47871,32136 47846,32119 47821,32080 47783,32016 47790,31995 47885,31900 47973,31808 48001,31798 48044,31833 48082,31865 48097,31868 48097,31836 48097,31812 48111,31801 48128,31812 48142,31822 48227,31819 48312,31801 48534,31755 48534,31755 48657,31819 L 48657,31819 Z M 47793,32172 C 47807,32207 47797,32221 47772,32214 47719,32196 47691,32115 47737,32115 47754,32115 47783,32140 47793,32172 L 47793,32172 Z M 49109,32228 C 49098,32253 49091,32235 49091,32186 49091,32136 49098,32119 49109,32140 49116,32165 49116,32207 49109,32228 L 49109,32228 Z M 24362,32461 C 24365,32517 24334,32620 24291,32683 24252,32750 24192,32881 24161,32972 24108,33135 24108,33149 24164,33212 24196,33248 24245,33279 24274,33279 24327,33279 24337,33336 24284,33368 24267,33378 24259,33410 24270,33438 24284,33466 24245,33533 24185,33593 24129,33653 24030,33763 23967,33844 23907,33921 23833,33985 23808,33985 23734,33985 23716,33826 23773,33671 23801,33590 23822,33512 23822,33498 23815,33300 23935,32807 24037,32606 24097,32493 24312,32309 24348,32344 24355,32348 24362,32401 24362,32461 L 24362,32461 Z M 23120,32412 C 23120,32422 23106,32440 23085,32450 23067,32461 23049,32454 23049,32436 23049,32415 23067,32397 23085,32397 23106,32397 23120,32404 23120,32412 L 23120,32412 Z M 26775,32450 C 26789,32479 26814,32503 26835,32503 26856,32503 26905,32535 26944,32570 26986,32609 27082,32662 27156,32687 27233,32711 27300,32754 27311,32775 27322,32810 27195,32821 26754,32821 26330,32821 26186,32810 26196,32778 26203,32757 26263,32718 26330,32697 26422,32666 26457,32630 26478,32546 26507,32443 26545,32419 26711,32401 26736,32401 26764,32422 26775,32450 L 26775,32450 Z M 48393,32500 C 48386,32510 48350,32489 48315,32454 48259,32394 48259,32390 48333,32436 48375,32461 48403,32489 48393,32500 L 48393,32500 Z M 46918,32479 C 46922,32482 46932,32524 46939,32574 46950,32662 46946,32662 46721,32651 46428,32641 46248,32613 46280,32581 46368,32493 46858,32415 46918,32479 L 46918,32479 Z M 23095,32606 C 23124,32747 23085,32962 23028,32962 22965,32962 22926,32673 22975,32577 23032,32475 23071,32486 23095,32606 L 23095,32606 Z M 46121,32591 C 46121,32609 46015,32630 45885,32634 45430,32651 44279,32898 44167,33001 44145,33018 44107,33032 44078,33032 44047,33032 44054,33011 44110,32962 44156,32923 44212,32891 44241,32891 44265,32891 44287,32877 44287,32863 44287,32845 44354,32810 44431,32785 44512,32757 44600,32715 44625,32687 44653,32662 44675,32655 44675,32673 44675,32711 44978,32662 45140,32591 45278,32535 46121,32535 46121,32591 L 46121,32591 Z M 24849,32803 C 24799,32860 24672,32877 24672,32824 24672,32785 24736,32757 24827,32754 24880,32750 24884,32761 24849,32803 L 24849,32803 Z M 49642,32793 C 49755,32905 49589,33001 49444,32905 49377,32863 49370,32842 49405,32800 49455,32740 49585,32736 49642,32793 L 49642,32793 Z M 46428,32817 C 46431,32821 46463,32849 46498,32884 46534,32919 46664,32969 46788,32994 46999,33036 47013,33032 47063,32965 47102,32909 47151,32891 47275,32891 47419,32891 47451,32909 47589,33050 47730,33195 47779,33279 47723,33279 47712,33279 47610,33233 47500,33177 47260,33050 47056,33008 47028,33078 47013,33117 46939,33124 46678,33110 46484,33103 46093,33121 45736,33156 45299,33198 45119,33205 45101,33177 45077,33138 44724,33209 44241,33353 43983,33431 43930,33424 44008,33325 44050,33272 44050,33269 43997,33290 43860,33339 43944,33279 44128,33195 44643,32958 45532,32782 46103,32803 46280,32810 46424,32817 46428,32817 L 46428,32817 Z M 24330,33103 C 24270,33226 24267,33230 24259,33138 24256,33099 24267,33068 24288,33068 24305,33068 24319,33043 24319,33011 24319,32983 24334,32965 24351,32976 24369,32990 24362,33043 24330,33103 L 24330,33103 Z M 27322,33138 C 27487,33184 27526,33233 27505,33375 27487,33487 27480,33491 27329,33491 27244,33491 27064,33466 26930,33435 26722,33389 26366,33360 25766,33343 25678,33343 25477,33375 25318,33417 24997,33498 24923,33509 24976,33459 25067,33368 25611,33195 26030,33121 26348,33064 27113,33075 27322,33138 L 27322,33138 Z M 27900,33353 C 27918,33371 27875,33385 27784,33385 27643,33385 27604,33357 27660,33300 27692,33272 27851,33304 27900,33353 L 27900,33353 Z M 50400,33385 C 50425,33445 50460,33484 50485,33477 50509,33466 50538,33473 50548,33491 50562,33512 50538,33526 50495,33526 50453,33526 50428,33540 50442,33558 50471,33607 50411,33632 50354,33593 50308,33569 50308,33562 50354,33562 50400,33562 50400,33558 50354,33526 50319,33505 50315,33491 50347,33491 50368,33491 50390,33466 50390,33438 50390,33410 50368,33389 50347,33392 50323,33399 50305,33378 50312,33350 50315,33315 50305,33318 50266,33364 50224,33420 50213,33424 50213,33378 50213,33325 50259,33290 50330,33283 50347,33279 50379,33329 50400,33385 L 50400,33385 Z M 43588,33445 C 43560,33456 43429,33547 43292,33650 43048,33833 42720,34179 42452,34532 42216,34839 42142,34920 42117,34895 42004,34782 42505,34112 42911,33837 42999,33777 43112,33689 43165,33643 43271,33544 43588,33382 43616,33410 43627,33420 43613,33438 43588,33445 L 43588,33445 Z M 40173,33763 C 40434,33897 40953,34486 41147,34867 41235,35040 41235,35054 41147,35008 41062,34962 41052,35015 41133,35082 41193,35131 41267,35290 41239,35315 41231,35322 41157,35230 41076,35107 40995,34983 40882,34835 40829,34779 40773,34719 40674,34570 40607,34447 40484,34221 40378,34133 39933,33872 39722,33745 39711,33650 39916,33681 39997,33696 40110,33731 40173,33763 L 40173,33763 Z M 24813,33935 C 24789,33960 24707,34002 24633,34024 24559,34048 24425,34126 24337,34200 24245,34278 24147,34338 24115,34338 24083,34338 23998,34394 23928,34465 23794,34595 23720,34599 23720,34479 23720,34401 23953,34193 24203,34048 24305,33992 24397,33932 24408,33914 24415,33900 24521,33886 24637,33886 24824,33883 24849,33890 24813,33935 L 24813,33935 Z M 27569,34521 C 27643,34542 27734,34592 27766,34630 27830,34697 27826,34697 27699,34683 27586,34673 27565,34680 27565,34733 27565,34814 27463,34860 27424,34796 27410,34772 27364,34757 27329,34768 27286,34779 27244,34761 27219,34722 27198,34690 27138,34637 27085,34613 27032,34588 26983,34546 26972,34521 26955,34465 27378,34461 27569,34521 L 27569,34521 Z M 23614,34722 C 23614,34761 23582,34800 23543,34814 23487,34832 23381,34969 23166,35311 23127,35371 23124,35371 23124,35280 23120,35128 23212,34959 23388,34796 23557,34641 23614,34620 23614,34722 L 23614,34722 Z M 42329,35325 C 42678,35509 42992,35710 43154,35851 43200,35893 43253,35925 43271,35925 43285,35925 43299,35950 43299,35982 43299,36027 43288,36031 43253,35999 43225,35978 43193,35971 43182,35985 43168,35996 43158,35989 43158,35964 43158,35939 43144,35932 43122,35943 43105,35953 43087,35946 43087,35922 43087,35897 43077,35890 43062,35900 43052,35915 43024,35911 43002,35893 42946,35851 42805,35823 42805,35855 42805,35907 43027,36070 43126,36091 43182,36101 43228,36133 43228,36158 43228,36186 43295,36253 43376,36313 43454,36370 43500,36419 43475,36419 43450,36419 43401,36394 43366,36363 43331,36331 43285,36317 43267,36331 43211,36363 43278,36475 43450,36655 43532,36740 43585,36807 43567,36807 43510,36807 43235,36595 43077,36422 42942,36278 42893,36246 42858,36278 42819,36310 42784,36299 42703,36239 42643,36193 42593,36144 42593,36126 42593,36109 42491,35989 42367,35862 42244,35731 42124,35590 42103,35544 42078,35498 42039,35470 42018,35477 41993,35484 41930,35442 41870,35382 41810,35322 41718,35241 41662,35198 L 41560,35124 41768,35131 C 41941,35138 42036,35170 42329,35325 L 42329,35325 Z M 27480,35244 C 27554,35597 27590,35703 27657,35773 27710,35826 27745,35929 27773,36123 27812,36398 27844,36454 27964,36454 27995,36454 28024,36468 28024,36486 28024,36521 27805,36574 27505,36617 27346,36634 27318,36631 27318,36585 27318,36553 27346,36507 27382,36482 27526,36380 27544,36197 27431,35925 27413,35876 27385,35682 27371,35491 27350,35191 27353,35149 27403,35149 27434,35149 27466,35188 27480,35244 L 27480,35244 Z M 41454,35368 C 41538,35449 41560,35551 41496,35593 41440,35625 41394,35565 41358,35417 41327,35269 41341,35262 41454,35368 L 41454,35368 Z M 44149,35788 C 44297,35826 44375,35900 44343,35978 44318,36045 44205,36024 43962,35918 43803,35847 43761,35795 43817,35735 43842,35710 43884,35717 44149,35788 L 44149,35788 Z M 49359,36056 C 49366,36024 49384,35996 49402,35996 49416,35996 49412,36042 49391,36101 49366,36168 49338,36193 49317,36172 49268,36123 49236,36130 49236,36190 49236,36218 49250,36243 49268,36243 49285,36243 49289,36260 49278,36278 49264,36299 49239,36303 49218,36292 49194,36274 49190,36285 49204,36310 49225,36345 49247,36341 49289,36303 49324,36274 49374,36239 49402,36225 49448,36197 49448,36200 49402,36264 49374,36299 49335,36341 49314,36355 49292,36370 49307,36384 49342,36384 49434,36384 49441,36387 49642,36497 49744,36549 49843,36588 49864,36578 49882,36564 49896,36574 49896,36595 49896,36617 49913,36624 49931,36613 49952,36602 49966,36609 49966,36634 49966,36659 49977,36666 49991,36655 50001,36641 50044,36659 50083,36691 50118,36726 50157,36751 50164,36744 50171,36740 50227,36761 50287,36793 50347,36821 50428,36842 50464,36832 50502,36821 50524,36825 50513,36842 50481,36892 50633,36906 50675,36856 50696,36828 50756,36807 50809,36807 50873,36807 50887,36796 50855,36775 50820,36754 50827,36740 50883,36726 50947,36708 50958,36719 50943,36775 50926,36842 50926,36842 51035,36775 51099,36740 51187,36698 51236,36684 51286,36669 51360,36620 51402,36571 51451,36514 51522,36482 51596,36479 51660,36475 51727,36454 51741,36437 51758,36415 51765,36444 51755,36497 51744,36574 51751,36588 51794,36564 51875,36518 51984,36560 52111,36691 52242,36821 52249,36825 52270,36761 52277,36740 52280,36747 52277,36779 52270,36814 52284,36842 52305,36842 52365,36846 52238,36913 52143,36934 52076,36945 51779,36990 51095,37089 50989,37103 50806,37149 50689,37192 50573,37234 50453,37276 50421,37287 50217,37354 48834,36338 48837,36126 48837,36101 48855,36112 48876,36144 48894,36179 48929,36207 48950,36207 48975,36207 48971,36190 48943,36154 48894,36094 48933,36020 49003,36045 49031,36056 49045,36052 49035,36034 49024,36017 49038,35992 49070,35982 49158,35946 49190,35957 49169,36013 49155,36042 49165,36066 49187,36066 49208,36066 49225,36031 49225,35985 49229,35915 49232,35918 49285,36013 49335,36098 49349,36105 49359,36056 L 49359,36056 Z M 45186,36070 C 45246,36105 45362,36172 45451,36221 45539,36267 45832,36525 46100,36793 46368,37061 46632,37304 46689,37333 46879,37442 47162,37682 47225,37791 47282,37890 47285,37918 47232,37890 47225,37886 47190,37918 47162,37961 47130,38006 47081,38042 47052,38042 46992,38042 46992,38059 47038,38151 47066,38200 47063,38218 47028,38218 46999,38218 46901,38119 46805,37999 46573,37703 46555,37671 46629,37700 46763,37752 46657,37632 46495,37551 46389,37498 46269,37389 46170,37262 45952,36980 45758,36818 45359,36595 44971,36380 44710,36165 44710,36059 44710,36024 44724,35999 44738,36010 44752,36017 44787,36010 44816,35992 44883,35950 45052,35985 45186,36070 L 45186,36070 Z M 43870,36140 C 43948,36179 44047,36204 44085,36193 44160,36176 44481,36285 44763,36430 45108,36602 46075,37467 46174,37692 46209,37767 46248,37830 46266,37830 46280,37830 46308,37879 46329,37936 46347,37996 46400,38091 46438,38148 L 46513,38253 46421,38253 C 46368,38253 46216,38186 46079,38105 45892,37992 45789,37901 45648,37710 45398,37375 45063,37068 44883,37015 44805,36990 44724,36941 44706,36906 44685,36871 44657,36849 44636,36860 44618,36874 44604,36867 44604,36846 44604,36828 44516,36751 44410,36676 44304,36602 44209,36518 44198,36490 44181,36440 43898,36243 43846,36243 43831,36243 43775,36204 43715,36154 43585,36045 43666,36034 43870,36140 L 43870,36140 Z M 46375,36331 C 46527,36327 46629,36338 46604,36355 46576,36373 46580,36384 46625,36384 46664,36384 46678,36398 46664,36426 46650,36451 46654,36454 46682,36440 46703,36426 46714,36398 46703,36380 46689,36363 46700,36348 46717,36348 46738,36348 46756,36363 46756,36380 46756,36401 46798,36401 46858,36384 46925,36366 46975,36370 46999,36394 47028,36422 47066,36415 47144,36373 47204,36338 47250,36327 47250,36345 47250,36366 47275,36384 47303,36384 47359,36384 47377,36472 47324,36504 47310,36514 47218,36659 47126,36825 47035,36990 46943,37125 46922,37125 46904,37125 46791,37036 46675,36927 46555,36818 46410,36708 46350,36684 46234,36634 45909,36363 45909,36313 45909,36295 45952,36295 46008,36310 46061,36324 46227,36331 46375,36331 L 46375,36331 Z M 49116,37015 C 49282,37132 49363,37110 49289,36973 49236,36874 49278,36860 49395,36945 49455,36987 49518,37019 49543,37019 49564,37019 49673,37079 49783,37156 50023,37315 50231,37428 50199,37375 50185,37357 50284,37393 50414,37460 50866,37682 51219,37837 51448,37908 51822,38024 52146,38211 52224,38356 52249,38405 52146,38366 51878,38225 51670,38116 51430,38017 51342,38003 50739,37911 50393,37802 49899,37551 49751,37474 49543,37375 49437,37326 49091,37170 48530,36676 48382,36394 48298,36232 48354,36271 48654,36581 48823,36758 49031,36952 49116,37015 L 49116,37015 Z M 49543,36331 C 49578,36373 49575,36384 49529,36384 49493,36384 49476,36370 49486,36352 49501,36334 49486,36310 49465,36303 49437,36288 49434,36281 49458,36281 49479,36278 49518,36303 49543,36331 L 49543,36331 Z M 52153,36595 C 52175,36634 52182,36666 52175,36666 52164,36666 52139,36634 52118,36595 52097,36557 52090,36525 52097,36525 52108,36525 52132,36557 52153,36595 L 52153,36595 Z M 28278,36899 C 28394,36934 28341,36983 28193,36980 27946,36973 27530,37012 27255,37072 26937,37139 26778,37142 26796,37082 26817,37026 27096,36920 27332,36881 27519,36853 28165,36863 28278,36899 L 28278,36899 Z M 48894,37781 L 49144,37957 48993,38123 C 48911,38215 48827,38289 48802,38289 48781,38289 48703,38257 48629,38218 48555,38183 48326,38088 48125,38013 47924,37936 47705,37848 47645,37816 L 47532,37756 47624,37573 C 47677,37474 47779,37290 47857,37170 L 47994,36952 48319,37280 C 48499,37460 48756,37685 48894,37781 L 48894,37781 Z M 53021,37357 C 53011,37389 53000,37431 53000,37453 53000,37481 52989,37481 52961,37453 52915,37407 52944,37301 53004,37301 53025,37301 53032,37326 53021,37357 L 53021,37357 Z M 28271,37403 C 28271,37446 28200,37460 27604,37548 27166,37611 27064,37615 27113,37565 27124,37555 27279,37509 27463,37460 27794,37375 28271,37343 28271,37403 L 28271,37403 Z M 52891,37449 C 52891,37520 52887,37523 52848,37470 52813,37417 52806,37417 52764,37470 52725,37520 52718,37520 52725,37477 52746,37357 52894,37333 52891,37449 L 52891,37449 Z M 53169,37449 C 53162,37470 53134,37495 53113,37498 53088,37502 53085,37498 53106,37488 53124,37481 53134,37456 53120,37438 53109,37421 53120,37407 53141,37407 53166,37407 53176,37424 53169,37449 L 53169,37449 Z M 24450,37573 C 24411,37608 24358,37544 24379,37491 24397,37438 24404,37442 24432,37495 24454,37527 24457,37562 24450,37573 L 24450,37573 Z M 52527,37555 C 52506,37590 52478,37618 52464,37618 52400,37618 52443,37675 52510,37678 52552,37682 52591,37654 52612,37608 L 52644,37530 52644,37608 C 52647,37664 52623,37692 52559,37710 52474,37731 52474,37735 52531,37781 52570,37809 52577,37827 52552,37830 52474,37830 52503,37936 52577,37936 52616,37936 52647,37950 52647,37971 52647,37989 52626,37996 52598,37985 52570,37975 52541,37996 52531,38038 52520,38081 52527,38102 52545,38091 52563,38081 52587,38098 52598,38130 52619,38176 52626,38179 52651,38140 52672,38109 52683,38109 52683,38137 52683,38158 52668,38190 52647,38200 52630,38211 52612,38246 52612,38275 52612,38303 52630,38317 52647,38306 52693,38278 52693,38394 52647,38465 52623,38507 52612,38504 52591,38447 52577,38409 52531,38345 52489,38306 52291,38126 52185,38042 52153,38042 52136,38042 52118,38024 52118,38006 52118,37985 52093,37971 52065,37971 52037,37971 52012,37957 52012,37939 52012,37925 51910,37883 51783,37848 51656,37816 51547,37774 51536,37759 51525,37745 51596,37714 51688,37692 51779,37668 51945,37625 52058,37597 52171,37565 52298,37537 52337,37530 52376,37520 52418,37509 52425,37498 52436,37488 52471,37484 52506,37488 52556,37491 52563,37502 52527,37555 L 52527,37555 Z M 24633,37742 C 24715,37717 24842,37809 24778,37848 24760,37858 24743,37897 24743,37929 24743,37961 24693,38038 24630,38102 24545,38190 24506,38208 24457,38183 24408,38155 24397,38105 24401,37929 24404,37696 24450,37615 24521,37710 24545,37745 24588,37756 24633,37742 L 24633,37742 Z M 25942,37717 C 25942,37749 25752,37865 25699,37865 25618,37865 25664,37795 25776,37745 25910,37685 25942,37678 25942,37717 L 25942,37717 Z M 48308,38257 C 48689,38423 48954,38567 49289,38793 49557,38977 49649,39079 49568,39114 49539,39125 49546,39146 49592,39185 49702,39273 49628,39252 49356,39118 49218,39051 49091,38994 49074,38994 49053,38994 48989,38959 48929,38913 48869,38867 48749,38811 48661,38783 48573,38758 48432,38698 48343,38652 48255,38606 48167,38571 48149,38571 48072,38571 47744,38232 47744,38151 47744,38081 47754,38077 47871,38098 47945,38112 48139,38183 48308,38257 L 48308,38257 Z M 47444,38218 C 47539,38402 47490,38581 47363,38504 47303,38469 47211,38229 47236,38169 47271,38077 47384,38105 47444,38218 L 47444,38218 Z M 25198,38363 C 25156,38423 25120,38500 25117,38536 25113,38571 25050,38648 24972,38712 24894,38772 24831,38850 24831,38878 24831,38980 24718,39019 24612,38952 24559,38920 24510,38874 24503,38853 24485,38804 24760,38536 24902,38465 24961,38437 25046,38377 25092,38334 25223,38208 25293,38229 25198,38363 L 25198,38363 Z M 50301,38402 C 50351,38423 50390,38454 50390,38472 50390,38486 50414,38500 50446,38500 50478,38500 50488,38518 50474,38543 50457,38571 50467,38574 50513,38557 50569,38536 50569,38543 50527,38596 50502,38631 50492,38648 50509,38634 50552,38599 50647,38705 50615,38751 50601,38779 50605,38783 50629,38768 50686,38733 50668,38962 50608,39033 50569,39079 50524,39082 50344,39058 50054,39019 49934,38977 49811,38867 49684,38758 49698,38726 49963,38507 50164,38345 50171,38342 50301,38402 L 50301,38402 Z M 52799,38490 C 52785,38525 52792,38539 52817,38521 52845,38507 52845,38532 52824,38613 52781,38754 52792,38765 52887,38677 52944,38624 52965,38617 52965,38652 52965,38694 52827,38783 52757,38783 52714,38783 52654,38550 52683,38500 52704,38469 52714,38469 52728,38504 52739,38532 52750,38518 52750,38472 52753,38426 52767,38398 52788,38412 52806,38423 52810,38458 52799,38490 L 52799,38490 Z M 47797,38818 C 47864,38945 47864,38959 47793,38959 47761,38959 47751,38977 47765,39001 47779,39026 47761,39022 47726,38991 47680,38945 47673,38902 47691,38821 47705,38761 47719,38712 47730,38712 47737,38712 47765,38758 47797,38818 L 47797,38818 Z M 50781,39012 C 50799,38998 50813,39008 50813,39026 50813,39047 50799,39065 50781,39065 50763,39065 50725,39075 50693,39086 50661,39096 50636,39089 50636,39065 50636,39044 50654,39037 50672,39047 50693,39058 50711,39033 50711,38987 50714,38927 50721,38924 50732,38969 50739,39001 50763,39022 50781,39012 L 50781,39012 Z M 50248,39608 C 50248,39619 50234,39636 50213,39647 50196,39657 50178,39650 50178,39633 50178,39612 50196,39594 50213,39594 50234,39594 50248,39601 50248,39608 L 50248,39608 Z M 58800,39947 C 58877,39947 58895,39961 58877,40007 58863,40038 58874,40077 58898,40091 58934,40116 58934,40134 58888,40176 58779,40289 58475,40130 58521,39985 58539,39925 58563,39911 58620,39925 58662,39936 58743,39947 58800,39947 L 58800,39947 Z M 58246,40620 C 58235,40666 58246,40698 58281,40712 58398,40758 58232,40790 57946,40776 57759,40765 57660,40772 57674,40793 57688,40814 57614,40829 57491,40832 57378,40832 57258,40839 57219,40846 57184,40853 57166,40846 57184,40832 57223,40797 57565,40687 57632,40687 57660,40687 57720,40656 57766,40617 57830,40568 57904,40550 58059,40546 58249,40546 58263,40553 58246,40620 L 58246,40620 Z M 31615,41270 C 31721,41319 31798,41375 31791,41397 31774,41446 31759,41442 31446,41372 31139,41301 31082,41266 31202,41220 31336,41167 31414,41174 31615,41270 L 31615,41270 Z"/>
        <path fill="rgb(0,0,0)" stroke="none" d="M 28218,9605 C 27650,9757 27131,10321 26874,11058 26655,11697 26602,12272 26704,12995 26799,13690 26941,14075 27300,14639 27544,15020 27992,15218 28606,15218 29258,15218 29668,15024 30056,14533 30391,14110 30535,13676 30585,12967 30645,12138 30299,10871 29858,10289 29699,10078 29276,9750 29057,9665 28870,9594 28383,9559 28218,9605 L 28218,9605 Z"/>
        <path fill="rgb(0,0,0)" stroke="none" d="M 23049,11556 C 22855,11619 22520,11983 22354,12307 22171,12667 22012,13122 21931,13514 21839,13976 21839,15380 21935,15729 22256,16925 23198,17070 23730,16004 23886,15697 24087,15087 24185,14635 24288,14159 24298,13193 24203,12752 24009,11845 23568,11386 23049,11556 L 23049,11556 Z"/>
        <path fill="rgb(0,0,0)" stroke="none" d="M 31551,15239 C 31551,15270 31569,15288 31594,15281 31657,15260 31668,15182 31608,15182 31576,15182 31551,15207 31551,15239 L 31551,15239 Z"/>
        <path fill="rgb(0,0,0)" stroke="none" d="M 8928,10455 C 8960,10494 8995,10515 9002,10508 9023,10487 8938,10385 8900,10385 8882,10385 8896,10416 8928,10455 L 8928,10455 Z"/>
        <path fill="rgb(0,0,0)" stroke="none" d="M 35707,18594 C 35732,18604 35763,18601 35774,18590 35788,18579 35767,18569 35728,18572 35689,18572 35679,18583 35707,18594 L 35707,18594 Z"/>
        <path fill="rgb(0,0,0)" stroke="none" d="M 35714,19345 C 35714,19363 35732,19380 35753,19380 35771,19380 35778,19363 35767,19345 35756,19324 35739,19310 35728,19310 35721,19310 35714,19324 35714,19345 L 35714,19345 Z"/>
        <path fill="rgb(0,0,0)" stroke="none" d="M 44378,19267 C 44368,19285 44382,19299 44410,19299 44438,19299 44452,19285 44442,19267 44431,19253 44417,19239 44410,19239 44403,19239 44389,19253 44378,19267 L 44378,19267 Z"/>
        <path fill="rgb(0,0,0)" stroke="none" d="M 22873,22132 C 22852,22171 22845,22202 22852,22202 22862,22202 22887,22171 22908,22132 22930,22093 22937,22061 22930,22061 22919,22061 22894,22093 22873,22132 L 22873,22132 Z"/>
        <path fill="rgb(0,0,0)" stroke="none" d="M 42374,21592 C 42399,21603 42431,21599 42442,21589 42456,21578 42434,21567 42396,21571 42357,21571 42346,21582 42374,21592 L 42374,21592 Z"/>
        <path fill="rgb(0,0,0)" stroke="none" d="M 41115,22717 C 41115,22756 41126,22767 41136,22739 41147,22714 41143,22682 41133,22672 41122,22657 41112,22679 41115,22717 L 41115,22717 Z"/>
        <path fill="rgb(0,0,0)" stroke="none" d="M 50640,31847 C 50647,31854 50693,31879 50742,31900 50827,31939 50827,31939 50763,31889 50707,31844 50591,31805 50640,31847 L 50640,31847 Z"/>
        <path fill="rgb(0,0,0)" stroke="none" d="M 51342,32203 C 51342,32210 51391,32246 51448,32274 51508,32306 51547,32344 51536,32362 51511,32401 51854,32563 52330,32740 52891,32948 53787,33244 53804,33226 53822,33209 53434,33029 53353,33018 53325,33015 53275,33001 53247,32990 53219,32979 53092,32934 52965,32891 52838,32845 52457,32683 52118,32531 51434,32217 51342,32179 51342,32203 L 51342,32203 Z"/>
        <path fill="rgb(0,0,0)" stroke="none" d="M 42999,30140 C 42988,30157 42995,30175 43013,30175 43034,30175 43052,30157 43052,30140 43052,30119 43045,30104 43038,30104 43027,30104 43009,30119 42999,30140 L 42999,30140 Z"/>
        <path fill="rgb(0,0,0)" stroke="none" d="M 42981,30249 C 42981,30267 42999,30274 43017,30263 43038,30253 43052,30235 43052,30224 43052,30217 43038,30210 43017,30210 42999,30210 42981,30228 42981,30249 L 42981,30249 Z"/>
        <path fill="rgb(0,0,0)" stroke="none" d="M 41129,31762 C 41119,31780 41126,31798 41143,31798 41164,31798 41182,31780 41182,31762 41182,31741 41175,31727 41168,31727 41157,31727 41140,31741 41129,31762 L 41129,31762 Z"/>
        <path fill="rgb(0,0,0)" stroke="none" d="M 26877,30535 C 26454,30637 26168,30768 26231,30828 26239,30835 26387,30803 26560,30753 26736,30704 27053,30627 27265,30581 L 27653,30500 27336,30500 C 27163,30500 26955,30514 26877,30535 L 26877,30535 Z"/>
        <path fill="rgb(0,0,0)" stroke="none" d="M 45338,33057 C 45359,33064 45401,33064 45426,33057 45447,33046 45430,33039 45380,33039 45331,33039 45313,33046 45338,33057 L 45338,33057 Z"/>
        <path fill="rgb(0,0,0)" stroke="none" d="M 42890,36109 C 42872,36137 42882,36140 42921,36126 42953,36116 42988,36119 42999,36137 43009,36158 43055,36190 43098,36211 43151,36236 43140,36221 43069,36158 42950,36056 42925,36049 42890,36109 L 42890,36109 Z"/>
        <path fill="rgb(0,0,0)" stroke="none" d="M 43193,36278 C 43193,36295 43211,36313 43232,36313 43249,36313 43256,36295 43246,36278 43235,36257 43218,36243 43207,36243 43200,36243 43193,36257 43193,36278 L 43193,36278 Z"/>
        <path fill="rgb(0,0,0)" stroke="none" d="M 52541,38183 C 52541,38200 52559,38218 52580,38218 52598,38218 52605,38200 52594,38183 52584,38162 52566,38148 52556,38148 52549,38148 52541,38162 52541,38183 L 52541,38183 Z"/>
        <path fill="rgb(0,0,0)" stroke="none" d="M 7055,2232 C 7026,2278 7076,2380 7160,2451 7217,2497 7220,2493 7196,2394 7164,2264 7086,2176 7055,2232 L 7055,2232 Z"/>
        <path fill="rgb(0,0,0)" stroke="none" d="M 5566,5040 C 5534,5090 5517,5139 5527,5150 5538,5160 5573,5121 5605,5061 5672,4931 5647,4917 5566,5040 L 5566,5040 Z"/>
        <path fill="rgb(0,0,0)" stroke="none" d="M 5259,5654 C 5224,5710 5174,5827 5146,5912 5097,6049 5100,6056 5150,5993 5241,5873 5344,5654 5333,5601 5326,5566 5301,5583 5259,5654 L 5259,5654 Z"/>
        <path fill="rgb(0,0,0)" stroke="none" d="M 30669,6501 C 30669,6522 30684,6543 30698,6554 30715,6564 30729,6550 30729,6522 30729,6494 30715,6469 30698,6469 30684,6469 30669,6483 30669,6501 L 30669,6501 Z"/>
        <path fill="rgb(0,0,0)" stroke="none" d="M 30856,6557 C 30856,6585 30870,6610 30888,6610 30902,6610 30916,6596 30916,6578 30916,6557 30902,6536 30888,6525 30870,6515 30856,6529 30856,6557 L 30856,6557 Z"/>
        <path fill="rgb(0,0,0)" stroke="none" d="M 31304,8123 C 31304,8145 31319,8166 31333,8176 31350,8187 31364,8173 31364,8145 31364,8116 31350,8092 31333,8092 31319,8092 31304,8106 31304,8123 L 31304,8123 Z"/>
        <path fill="rgb(0,0,0)" stroke="none" d="M 31467,8501 C 31491,8511 31502,8554 31491,8596 31477,8667 31481,8667 31516,8610 31537,8578 31583,8550 31615,8547 31664,8547 31661,8540 31604,8515 31565,8497 31509,8483 31481,8483 31453,8487 31446,8494 31467,8501 L 31467,8501 Z"/>
        <path fill="rgb(0,0,0)" stroke="none" d="M 20421,17793 C 20411,17810 20418,17828 20435,17828 20457,17828 20474,17810 20474,17793 20474,17772 20467,17757 20460,17757 20450,17757 20432,17772 20421,17793 L 20421,17793 Z"/>
       </g>
      </g>
     </g>
    </g>
   </g>
  </g>
 </g>
</svg>